﻿
DisplayName "MS Fish Lower Deck"



EVENT   1
 PAGE   1
  281(0)
  If(6,-1,8)
   250(bytes(0x04,0x08,0x6f,0x3a,0x0c,0x52,0x50,0x47,0x3a,0x3a,0x53,0x45,0x08,0x3a,0x0a,0x40,0x6e,0x61,0x6d,0x65,0x49,0x22,0x09,0x4d,0x6f,0x76,0x65,0x06,0x3a,0x06,0x45,0x54,0x3a,0x0b,0x40,0x70,0x69,0x74,0x63,0x68,0x69,0x69,0x3a,0x0c,0x40,0x76,0x6f,0x6c,0x75,0x6d,0x65,0x69,0x55))
   TeleportPlayer(0,478,20,18,0,0)
   0()
  EndIf()
  0()



EVENT   2
 PAGE   1
  281(0)
  If(6,-1,8)
   250(bytes(0x04,0x08,0x6f,0x3a,0x0c,0x52,0x50,0x47,0x3a,0x3a,0x53,0x45,0x08,0x3a,0x0a,0x40,0x6e,0x61,0x6d,0x65,0x49,0x22,0x09,0x4d,0x6f,0x76,0x65,0x06,0x3a,0x06,0x45,0x54,0x3a,0x0b,0x40,0x70,0x69,0x74,0x63,0x68,0x69,0x69,0x3a,0x0c,0x40,0x76,0x6f,0x6c,0x75,0x6d,0x65,0x69,0x55))
   TeleportPlayer(0,478,21,18,0,0)
   0()
  EndIf()
  0()



EVENT   3
 PAGE   1
  If(0,2149,1)
   ChangeSwitch(2168,2168,0)
   ShowMessageFace("nekomata_fc1",2,0,2,1)
   ShowMessage("\\n<Nekomata>Meeeeoooow.")
   If(4,70,0)
    ShowMessageFace("nezumi_fc1",2,0,2,2)
    ShowMessage("\\n<Ratty>Cat!")
    0()
   EndIf()
   If(0,6,0)
    ShowMessageFace("sonia_fc3",2,0,2,3)
    ShowMessage("\\n<Sonya>This cat is the leader of the pirates!?")
    0()
   Else()
    ShowMessageFace("ruka_fc1",0,0,2,4)
    ShowMessage("\\n<Luka>This cat is their captain...?")
    0()
   EndIf()
   ShowMessageFace("ashel_fc1",0,0,2,5)
   ShowMessage("\\n<Ashel>No... The nekomata sits here without permission. Sigh, where did milady go?")
   ShowMessageFace("nekomata_fc1",4,0,2,6)
   ShowMessage("\\n<Nekomata>Meow?")
   ShowMessageFace("ashel_fc1",0,0,2,7)
   ShowMessage("\\n<Ashel>Well, I have a pretty good guess... Let's check the food storeroom on the deck above us.")
   EndEventProcessing()
   0()
  EndIf()
  If(1,1051,0,1,0)
   ChangeSwitch(2169,2169,0)
   ShowMessageFace("nekomata_fc1",2,0,2,8)
   ShowMessage("\\n<Nekomata>Meeeeooow.")
   ShowMessageFace("ashel_fc1",0,0,2,9)
   ShowMessage("\\n<Ashel>That chair does not belong to you.\n...Fine, never mind.")
   If(0,6,0)
    ShowMessageFace("sonia_fc2",2,0,2,10)
    ShowMessage("\\n<Sonya>So where is Captain Bonnie...?")
    0()
   Else()
    ShowMessageFace("ruka_fc1",0,0,2,11)
    ShowMessage("\\n<Luka>So where is Captain Bonnie...?")
    0()
   EndIf()
   ShowMessageFace("ashel_fc1",0,0,2,12)
   ShowMessage("\\n<Ashel>Well, I have a pretty good guess... Let's check the food storeroom on the deck above us.")
   If(4,171,0)
    ShowMessageFace("lizardboss_fc1",3,0,2,13)
    ShowMessage("\\n<Miranda>Seriously? Is she snitching food again...")
    0()
   EndIf()
   If(4,79,0)
    ShowMessageFace("nuruko_fc1",0,0,2,14)
    ShowMessage("\\n<Nuruko>Kyuu!")
    0()
   EndIf()
   EndEventProcessing()
   0()
  EndIf()
  If(1,1051,0,2,0)
   ShowMessageFace("nekomata_fc1",2,0,2,15)
   ShowMessage("\\n<Nekomata>Meeeeooow.")
   If(0,6,0)
    ShowMessageFace("sonia_fc2",2,0,2,16)
    ShowMessage("\\n<Sonya>Is this cat actually the real captain or something...?")
    PictureDisplay(5,"80_bonny_st01",0,0,0,0,100,100,0,0)
    PictureMove(5,null,0,0,0,0,100,100,255,0,30,true)
    ShowMessageFace("bonny_fc1",0,0,2,17)
    ShowMessage("\\n<Bonnie>Nah, she's just a stray. She likes how cozy the chair is and won't give it up.")
    If(4,60,0)
     ShowMessageFace("dog_fc1",0,0,2,18)
     ShowMessage("\\n<Pochi>It's that cozy?\nI want to try sitting in it...")
     0()
    EndIf()
    0()
   EndIf()
   PictureDisplay(5,"80_bonny_st01",0,0,-150,0,100,100,255,0)
   PictureDisplay(6,"80_ashel_st01",0,0,150,0,100,100,255,0)
   ShowMessageFace("ashel_fc1",0,0,2,19)
   ShowMessage("\\n<Ashel>Once we depart, we won't be back on land for a bit. Are you fully equipped and stocked up on items?")
   ShowChoices(strings("Go to the Grand Pirates' Cave","Spend more time preparing"),0)
   IfPlayerPicksChoice(0,null)
    ShowMessageFace("ashel_fc1",1,0,2,20)
    ShowMessage("\\n<Ashel>All right, prepare for departure! Get to work, you slackards!")
    ShowMessageFace("k_mermaid_fc1",0,0,2,21)
    ShowMessage("\\n<Mermaid Pirate>Steady as she goes!")
    ShowMessageFace("nekomata_fc1",2,0,2,22)
    ShowMessage("\\n<Nekomata>Meeeeeeeoooooooow!")
    ShowMessageFace("",0,0,2,23)
    ShowMessage("The MS Fish begins to pick up speed!")
    If(4,53,0)
     ShowMessageFace("slime_fc1",0,0,2,24)
     ShowMessage("\\n<Lime>Yarrrrrrrr, cap'n!")
     ShowMessageFace("bonny_fc1",1,0,2,25)
     ShowMessage("\\n<Bonnie>You're certainly fired up! I hereby appoint you as an honorary pirate!")
     ShowMessageFace("slime_fc1",0,0,2,26)
     ShowMessage("\\n<Lime>Yaaay! Woo hoo!")
     ShowMessageFace("bonny_fc1",1,0,2,27)
     ShowMessage("\\n<Bonnie>Here, put on this pirate hat. It's got our fish bone trademark on it.")
     ShowMessageFace("slime_fc1",2,0,2,28)
     ShowMessage("\\n<Lime>I'd prefer a fish with more than just the bones left...")
     0()
    EndIf()
    ShowMessageFace("bonny_fc1",0,0,2,29)
    ShowMessage("\\n<Bonnie>Okay, in fulfilling my duties as captain, I'm going to check on our remaining food supplies.")
    ShowMessageFace("ashel_fc1",0,0,2,30)
    ShowMessage("\\n<Ashel>Not so fast, milady. It's time for your swimming lessons. You're the only member of the crew left who can't swim.")
    If(0,6,0)
     ShowMessageFace("sonia_fc2",2,0,2,31)
     ShowMessage("\\n<Sonya>A mermaid who can't swim...?")
     0()
    EndIf()
    PictureDisplay(5,"80_bonny_st03",0,0,-150,0,100,100,255,0)
    ShowMessageFace("bonny_fc1",2,0,2,32)
    ShowMessage("\\n<Bonnie>It's all these milk bags' fault. Thanks to them, my balance is out of whack...")
    If(4,66,0)
     ShowMessageFace("vgirl_fc1",0,0,2,33)
     ShowMessage("\\n<Vanilla>If you don't want them, I'll take them.")
     0()
    EndIf()
    If(4,56,0)
     ShowMessageFace("inp_fc1",3,0,2,34)
     ShowMessage("\\n<Rami>I can't fly because of my milk bags...")
     0()
    EndIf()
    ShowMessageFace("ashel_fc1",0,0,2,35)
    ShowMessage("\\n<Ashel>All right, milady, I've filled this tub with water. Let's see if you can hold your head underwater for 10 seconds...")
    ShowMessageFace("bonny_fc1",2,0,2,36)
    ShowMessage("\\n<Bonnie>*splash* *splash* ... *bubble* *bubble* ...")
    If(0,6,0)
     ShowMessageFace("sonia_fc3",2,0,2,37)
     ShowMessage("\\n<Sonya>She's starting from there!?")
     0()
    EndIf()
    If(4,155,0)
     ShowMessageFace("saki_fc1",0,0,2,38)
     ShowMessage("\\n<Saki>Should I help her train too...?")
     0()
    EndIf()
    PictureClear(5)
    PictureClear(6)
    ShowMessageFace("",0,0,2,39)
    ShowMessage("Luka's party relaxes on the ship while the captain undergoes intensive training...")
    314(0,0)
    221()
    250(bytes(0x04,0x08,0x6f,0x3a,0x0c,0x52,0x50,0x47,0x3a,0x3a,0x53,0x45,0x08,0x3a,0x0a,0x40,0x6e,0x61,0x6d,0x65,0x49,0x22,0x0b,0x57,0x61,0x74,0x65,0x72,0x31,0x06,0x3a,0x06,0x45,0x54,0x3a,0x0b,0x40,0x70,0x69,0x74,0x63,0x68,0x69,0x69,0x3a,0x0c,0x40,0x76,0x6f,0x6c,0x75,0x6d,0x65,0x69,0x55))
    Wait(60)
    TeleportPlayer(0,2,20,211,4,2)
    ChangeVariable(1051,1051,0,0,3)
    ChangeVariable(1002,1002,0,0,22)
    222()
    ShowMessageFace("ashel_fc1",0,0,2,40)
    ShowMessage("\\n<Ashel>The Grand Pirate's Cave is just ahead. If you need to reorganize your party, return to the ship.")
    If(0,4,0)
     ShowMessageFace("alice_fc5",0,0,2,41)
     ShowMessage("\\n<Alice>They said the cave is guarded by the navy so we'll probably be stuck fighting against their marines.")
     0()
    EndIf()
    If(0,5,0)
     ShowMessageFace("iriasu_fc4",7,0,2,42)
     ShowMessage("\\n<Ilias>The navy has the cave under guard. I expect we shall have to face their marines inside.")
     0()
    EndIf()
    ShowMessageFace("ashel_fc1",0,0,2,43)
    ShowMessage("\\n<Ashel>One bit of advice...\nThe marines won't join you no matter how hard you try.")
    ShowMessageFace("ashel_fc1",0,0,2,44)
    ShowMessage("\\n<Ashel>You're a pirate now, so it'll be impossible to make allies of the marines regardless of their affinity.")
    ShowMessageFace("bonny_fc1",0,0,2,45)
    ShowMessage("\\n<Bonnie>All right, let's nab Roza's treasure! Fishy Pirates, move out!")
    If(4,171,0)
     ShowMessageFace("lizardboss_fc1",0,0,2,46)
     ShowMessage("\\n<Miranda>Let's go plunder some treasure like real pirates!")
     0()
    EndIf()
    If(4,53,0)
     ShowMessageFace("slime_fc1",0,0,2,47)
     ShowMessage("\\n<Lime>Yaaay! Let's go!")
     0()
    EndIf()
    EndEventProcessing()
    0()
   IfPlayerPicksChoice(1,null)
    ShowMessageFace("ashel_fc1",0,0,2,48)
    ShowMessage("\\n<Ashel>Okay, but hurry up.\nEveryone's itching to go already.")
    PictureClear(5)
    PictureClear(6)
    EndEventProcessing()
    0()
   404()
   0()
  EndIf()
  0()



EVENT   4
 PAGE   1
  ShowMessageFace("k_mermaid_fc1",0,0,2,1)
  ShowMessage("\\n<Mermaid Pirate>姉御、もうすぐ会議なんですけど……")
  ShowMessageFace("ashel_fc1",0,0,2,2)
  ShowMessage("\\n<Ashel>ああ、ちょっと待っててくれ。")
  ShowMessage("この連中の案内があるからな。")
  ShowMessageFace("k_mermaid_fc1",0,0,2,3)
  ShowMessage("\\n<Mermaid Pirate>おいっす！")
  If(0,6,0)
   ShowMessageFace("sonia_fc1",0,0,2,4)
   ShowMessage("\\n<Sonya>忙しいんですね、副船長って……")
   0()
  Else()
   ShowMessageFace("ruka_fc1",0,0,2,5)
   ShowMessage("\\n<Luka>忙しいんですね、副船長って……")
   0()
  EndIf()
  ShowMessageFace("ashel_fc1",0,0,2,6)
  ShowMessage("\\n<Ashel>お嬢がちゃらんぽらんな分、あたしががんばらないと。")
  ShowMessage("先代に任されたんだよ、おさかな海賊団の事を。")
  0()



EVENT   5
 PAGE   1
  ShowMessageFace("k_mermaid_fc1",0,0,2,1)
  ShowMessage("\\n<Mermaid Pirate>イヌふんじゃった～♪")
  355("actor_label_jump")
  EndEventProcessing()
  DefineLabel("60")
  ShowMessageFace("dog_fc1",4,0,2,2)
  ShowMessage("\\n<Pochi>ふぎゃん！")
  EndEventProcessing()
  0()



EVENT   6
 PAGE   1
  ShowMessageFace("dog_fc1",4,0,2,1)
  ShowMessage("\\n<Wow>Woof♪　Woof♪　わわん♪")
  0()



EVENT   7
 PAGE   1
  ShowMessageFace("k_mermaid_fc1",0,0,2,1)
  ShowMessage("\\n<Mermaid Pirate>Because Wow moves around the ship so fast, it almost seems like she is in multiple places at once.")
  ShowMessageFace("k_mermaid_fc1",0,0,2,2)
  ShowMessage("\\n<Mermaid Pirate>But there actually are rumors that there are more than one of her...")
  ShowMessage("It's one of the Seven Wonders of the pirates.")
  355("actor_label_jump")
  EndEventProcessing()
  DefineLabel("66")
  ShowMessageFace("vgirl_fc1",5,0,2,3)
  ShowMessage("\\n<Vanilla>七不思議！？　怖い話はするな～！")
  EndEventProcessing()
  DefineLabel("102")
  ShowMessageFace("youko_fc1",0,0,2,4)
  ShowMessage("\\n<Kitsu>七不思議とか、大好き～！")
  If(4,103,0)
   ShowMessageFace("kamuro_fc1",2,0,2,5)
   ShowMessage("\\n<Kamuro>わ、私はちょっと……そういうの苦手です。")
   0()
  EndIf()
  EndEventProcessing()
  DefineLabel("120")
  ShowMessageFace("page257_fc1",0,0,2,6)
  ShowMessage("\\n<ヨーコ>I'm worried what the other six might be...")
  EndEventProcessing()
  0()



EVENT   8
 PAGE   1
  ShowMessageFace("k_mermaid_fc1",0,0,2,1)
  ShowMessage("\\n<Mermaid Pirate>My favorite book is [The Secret of Pirate Island].")
  ShowMessage("I also want to go on an adventure and become a legend~!")
  355("actor_label_jump")
  EndEventProcessing()
  DefineLabel("68")
  ShowMessageFace("dragonp_fc1",0,0,2,2)
  ShowMessage("\\n<Papi>あたしも冒険がしたいのだ！")
  EndEventProcessing()
  DefineLabel("72")
  ShowMessageFace("phoenix_fc1",1,0,2,3)
  ShowMessage("\\n<Mini>絵本「かいぞくじまのひみつ」、あたしも大好きだぞ～！")
  ShowMessageFace("phoenix_fc1",5,0,2,4)
  ShowMessage("\\n<Mini>読んでたら体が熱くなって、絵本が燃えてしまうけどな……")
  EndEventProcessing()
  DefineLabel("144")
  ShowMessageFace("saboresu_fc1",1,0,2,5)
  ShowMessage("\\n<Sunny>冒険、したいよね～！")
  EndEventProcessing()
  0()



EVENT   9
 PAGE   1
  If(0,2149,1)
   ShowMessageFace("k_mermaid_fc1",0,0,2,1)
   ShowMessage("\\n<Mermaid Pirate>あんた達の噂、聞いてるよ。")
   ShowMessage("あちこちで大活躍してるんだって？")
   ShowMessageFace("k_mermaid_fc1",0,0,2,2)
   ShowMessage("\\n<Mermaid Pirate>仲間になってくれたら、嬉しいなー♪")
   ShowMessage("ねぇ、おさかな海賊団に入ろうよ♪")
   0()
  Else()
   ShowMessageFace("k_mermaid_fc1",0,0,2,3)
   ShowMessage("\\n<Mermaid Pirate>You joined the Fishy Pirates!")
   ShowMessage("Well then, nice to meet you!")
   0()
  EndIf()
  0()



EVENT   10
 PAGE   1
  ShowMessageFace("k_mermaid_fc1",0,0,2,1)
  ShowMessage("\\n<Mermaid Pirate>On this floor, there are the libary and the conference room...")
  ShowMessage("And there's also the room of our boss!")
  0()



EVENT   11
 PAGE   1
  ShowMessageFace("k_mermaid_fc1",0,0,2,1)
  ShowMessage("\\n<Mermaid Pirate>アシェルの姉御って、おかしらの事を「お嬢」って呼ぶの。")
  ShowMessageFace("k_mermaid_fc1",0,0,2,2)
  ShowMessage("\\n<Mermaid Pirate>姉御は、先代の時代からの腹心。")
  ShowMessage("それで先代から、「娘を頼む」って言われたんだって。")
  ShowMessageFace("ashel_fc1",0,0,2,3)
  ShowMessage("\\n<Ashel>……まったく、とんだジャジャ馬を押し付けられたもんだよ。")
  355("actor_label_jump")
  EndEventProcessing()
  DefineLabel("5")
  ShowMessageFace("alice_fc5",0,0,2,4)
  ShowMessage("\\n<Alice>余とたまもの関係のようなものか。")
  ShowMessage("それは……とってもガミガミうざいな。")
  If(4,202,0)
   ShowMessageFace("bonny_fc1",1,0,2,5)
   ShowMessage("\\n<Bonnie>分かってくれるか……口を開けば小言だぞ。")
   0()
  EndIf()
  EndEventProcessing()
  0()



EVENT   12
 PAGE   1
  250(bytes(0x04,0x08,0x6f,0x3a,0x0c,0x52,0x50,0x47,0x3a,0x3a,0x53,0x45,0x08,0x3a,0x0a,0x40,0x6e,0x61,0x6d,0x65,0x49,0x22,0x0a,0x49,0x74,0x65,0x6d,0x31,0x06,0x3a,0x06,0x45,0x54,0x3a,0x0b,0x40,0x70,0x69,0x74,0x63,0x68,0x69,0x69,0x3a,0x0c,0x40,0x76,0x6f,0x6c,0x75,0x6d,0x65,0x69,0x55))
  ChangeSelfSwitch("A",0)
  ChangeInventory_Item(12,0,0,1)
  0()
 PAGE   2
  // condition: self-switch A is ON
  0()



EVENT   13
 PAGE   1
  ShowMessageFace("k_mermaid_fc1",0,0,2,1)
  ShowMessage("\\n<Mermaid Pirate>アシェルの姉御は「4カジのアシェル」の異名を持ってるんだよ！")
  If(0,6,0)
   ShowMessageFace("sonia_fc2",2,0,2,2)
   ShowMessage("\\n<Sonya>4カジ……って、何？")
   0()
  Else()
   ShowMessageFace("ruka_fc1",0,0,2,3)
   ShowMessage("\\n<Luka>4カジ……？")
   0()
  EndIf()
  ShowMessageFace("k_mermaid_fc1",0,0,2,4)
  ShowMessage("\\n<Mermaid Pirate>まず姉御は、家事が大の得意。")
  ShowMessage("料理に洗濯、掃除、全部アシェルの姉御が中心にやってるんだよ。")
  ShowMessageFace("k_mermaid_fc1",0,0,2,5)
  ShowMessage("\\n<Mermaid Pirate>……これが、一つ目のカジ（家事）ね。")
  ShowMessageFace("ashel_fc1",0,0,2,6)
  ShowMessage("\\n<Ashel>お前達も、もう少し働いてほしいもんだけどな……")
  ShowMessageFace("k_mermaid_fc1",0,0,2,7)
  ShowMessage("\\n<Mermaid Pirate>次に姉御は、武器の手入れも担当してるんだよ。")
  ShowMessage("その腕前は、鍛冶屋にも後れを取らないくらいなんだからね。")
  ShowMessageFace("k_mermaid_fc1",0,0,2,8)
  ShowMessage("\\n<Mermaid Pirate>……これが、二つ目のカジ（鍛冶）ね。")
  ShowMessageFace("ashel_fc1",0,0,2,9)
  ShowMessage("\\n<Ashel>お前達が、まともに武器の手入れもやらないからだろ……")
  ShowMessageFace("k_mermaid_fc1",0,0,2,10)
  ShowMessage("\\n<Mermaid Pirate>さらに姉御は、操舵の腕も超一流。")
  ShowMessage("ピンチの時は、操舵手に代わって舵を握る事もあるんだからね。")
  ShowMessageFace("k_mermaid_fc1",0,0,2,11)
  ShowMessage("\\n<Mermaid Pirate>……これが、三つ目のカジ（舵）ね。")
  ShowMessageFace("ashel_fc1",0,0,2,12)
  ShowMessage("\\n<Ashel>あたしは元々、操舵手だったからな。")
  ShowMessageFace("k_mermaid_fc1",0,0,2,13)
  ShowMessage("\\n<Mermaid Pirate>おまけに姉御は、海賊きっての戦術家。")
  ShowMessage("特に得意なのは火計で、海戦で姉御が燃やした敵船は数知れず！")
  ShowMessageFace("k_mermaid_fc1",0,0,2,14)
  ShowMessage("\\n<Mermaid Pirate>……これが、四つ目のカジ（火事）ね。")
  ShowMessageFace("ashel_fc1",0,0,2,15)
  ShowMessage("\\n<Ashel>前団長の下で、海上戦術は徹底的に叩き込まれたからな。")
  ShowMessage("暇な時は、古代の兵書もちょくちょく読むし。")
  If(0,4,0)
   ShowMessageFace("alice_fc5",1,0,2,16)
   ShowMessage("\\n<Alice>それで「4カジのアシェル」の異名を持つというわけか。")
   ShowMessage("なんと有能な人材……余の配下に欲しいぞ。")
   0()
  EndIf()
  If(0,5,0)
   ShowMessageFace("iriasu_fc4",0,0,2,17)
   ShowMessage("\\n<Ilias>それで「4カジのアシェル」の異名を持つというわけですか。")
   ShowMessage("エデンよりも有能なようですね。")
   0()
  EndIf()
  If(0,6,0)
   ShowMessageFace("sonia_fc1",0,0,2,18)
   ShowMessage("\\n<Sonya>副団長でもそんなにすごいんなら……")
   ShowMessage("団長なんて、どんなにすごいのかな？")
   0()
  Else()
   ShowMessageFace("ruka_fc1",0,0,2,19)
   ShowMessage("\\n<Luka>副団長でもそんなにすごいんなら……")
   ShowMessage("団長なんて、どんなにすごいんだろう？")
   0()
  EndIf()
  ShowMessageFace("k_mermaid_fc1",0,0,2,20)
  ShowMessage("\\n<Mermaid Pirate>おかしらは、えっと……")
  ShowMessage("元気が良くて、声もおっぱいも大きいよ！")
  If(4,66,0)
   ShowMessageFace("vgirl_fc1",0,0,2,21)
   ShowMessage("\\n<Vanilla>おっぱいが大きい？　ならば敵か……")
   0()
  EndIf()
  0()
