﻿
DisplayName "MS Fish B2F"



EVENT   1
 PAGE   1
  281(0)
  If(6,-1,8)
   250(bytes(0x04,0x08,0x6f,0x3a,0x0c,0x52,0x50,0x47,0x3a,0x3a,0x53,0x45,0x08,0x3a,0x0a,0x40,0x6e,0x61,0x6d,0x65,0x49,0x22,0x09,0x4d,0x6f,0x76,0x65,0x06,0x3a,0x06,0x45,0x54,0x3a,0x0b,0x40,0x70,0x69,0x74,0x63,0x68,0x69,0x69,0x3a,0x0c,0x40,0x76,0x6f,0x6c,0x75,0x6d,0x65,0x69,0x55))
   TeleportPlayer(0,743,20,18,0,0)
   0()
  EndIf()
  0()



EVENT   2
 PAGE   1
  281(0)
  If(6,-1,8)
   250(bytes(0x04,0x08,0x6f,0x3a,0x0c,0x52,0x50,0x47,0x3a,0x3a,0x53,0x45,0x08,0x3a,0x0a,0x40,0x6e,0x61,0x6d,0x65,0x49,0x22,0x09,0x4d,0x6f,0x76,0x65,0x06,0x3a,0x06,0x45,0x54,0x3a,0x0b,0x40,0x70,0x69,0x74,0x63,0x68,0x69,0x69,0x3a,0x0c,0x40,0x76,0x6f,0x6c,0x75,0x6d,0x65,0x69,0x55))
   TeleportPlayer(0,743,20,18,0,0)
   0()
  EndIf()
  0()



EVENT   3
 PAGE   1
  // condition: switch 1205 is ON
  PictureDisplay(5,"80_levia_st01",0,0,0,0,100,100,0,0)
  PictureMove(5,null,0,0,0,0,100,100,255,0,30,true)
  If(1,3205,0,500,1)
   If(1,4205,0,0,0)
    ChangeVariable(4205,4205,0,0,1)
    ShowMessageFace("levia_fc1",1,0,2,1)
    ShowMessage("【リヴィア】(Affection:\\V[3205])")
    ShowMessage("海軍からの物資だと思うがいい……")
    250(bytes(0x04,0x08,0x6f,0x3a,0x0c,0x52,0x50,0x47,0x3a,0x3a,0x53,0x45,0x08,0x3a,0x0a,0x40,0x6e,0x61,0x6d,0x65,0x49,0x22,0x0a,0x49,0x74,0x65,0x6d,0x31,0x06,0x3a,0x06,0x45,0x54,0x3a,0x0b,0x40,0x70,0x69,0x74,0x63,0x68,0x69,0x69,0x3a,0x0c,0x40,0x76,0x6f,0x6c,0x75,0x6d,0x65,0x69,0x55))
    ChangeInventoryArmor(1537,0,0,1,false)
    0()
   EndIf()
   0()
  EndIf()
  If(1,3205,0,2000,1)
   If(1,4205,0,1,0)
    ChangeVariable(4205,4205,0,0,2)
    ShowMessageFace("levia_fc1",1,0,2,2)
    ShowMessage("【リヴィア】(Affection:\\V[3205])")
    ShowMessage("海軍からの物資だと思うがいい……")
    250(bytes(0x04,0x08,0x6f,0x3a,0x0c,0x52,0x50,0x47,0x3a,0x3a,0x53,0x45,0x08,0x3a,0x0a,0x40,0x6e,0x61,0x6d,0x65,0x49,0x22,0x0a,0x49,0x74,0x65,0x6d,0x31,0x06,0x3a,0x06,0x45,0x54,0x3a,0x0b,0x40,0x70,0x69,0x74,0x63,0x68,0x69,0x69,0x3a,0x0c,0x40,0x76,0x6f,0x6c,0x75,0x6d,0x65,0x69,0x55))
    ChangeInventoryArmor(1443,0,0,1,false)
    0()
   EndIf()
   0()
  EndIf()
  If(1,3205,0,4000,1)
   If(1,4205,0,2,0)
    ChangeVariable(4205,4205,0,0,3)
    ShowMessageFace("levia_fc1",1,0,2,3)
    ShowMessage("【リヴィア】(Affection:\\V[3205])")
    ShowMessage("海軍からの物資だと思うがいい……")
    250(bytes(0x04,0x08,0x6f,0x3a,0x0c,0x52,0x50,0x47,0x3a,0x3a,0x53,0x45,0x08,0x3a,0x0a,0x40,0x6e,0x61,0x6d,0x65,0x49,0x22,0x0a,0x49,0x74,0x65,0x6d,0x31,0x06,0x3a,0x06,0x45,0x54,0x3a,0x0b,0x40,0x70,0x69,0x74,0x63,0x68,0x69,0x69,0x3a,0x0c,0x40,0x76,0x6f,0x6c,0x75,0x6d,0x65,0x69,0x55))
    ChangeInventoryArmor(1716,0,0,1,false)
    0()
   EndIf()
   0()
  EndIf()
  If(1,3205,0,6000,1)
   If(1,4205,0,3,0)
    ChangeVariable(4205,4205,0,0,4)
    ShowMessageFace("levia_fc1",1,0,2,4)
    ShowMessage("【リヴィア】(Affection:\\V[3205])")
    ShowMessage("海軍からの物資だと思うがいい……")
    250(bytes(0x04,0x08,0x6f,0x3a,0x0c,0x52,0x50,0x47,0x3a,0x3a,0x53,0x45,0x08,0x3a,0x0a,0x40,0x6e,0x61,0x6d,0x65,0x49,0x22,0x0a,0x49,0x74,0x65,0x6d,0x31,0x06,0x3a,0x06,0x45,0x54,0x3a,0x0b,0x40,0x70,0x69,0x74,0x63,0x68,0x69,0x69,0x3a,0x0c,0x40,0x76,0x6f,0x6c,0x75,0x6d,0x65,0x69,0x55))
    ChangeInventoryArmor(1632,0,0,1,false)
    0()
   EndIf()
   0()
  EndIf()
  355("actor_label_jump")
  ShowMessageFace("levia_fc1",0,0,2,5)
  ShowMessage("【リヴィア】(Affection:\\V[3205])")
  ShowMessage("職務が忙しい身ではあるが……")
  ShowMessage("世界平和のためなら、一肌脱がねばなるまい。")
  JumpToLabel("メニュー")
  DefineLabel("202")
  ShowMessageFace("levia_fc1",0,0,2,6)
  ShowMessage("【リヴィア】(Affection:\\V[3205])")
  ShowMessage("おさかな海賊団団長、ボニーか……")
  ShowMessageFace("bonny_fc1",0,0,2,7)
  ShowMessage("【ボニー】(Affection:\\V[3202])")
  ShowMessage("ぬおっ、海軍大将リヴァイアサン！")
  ShowMessage("まさか、あたしをここで逮捕しようというのか！？")
  ShowMessageFace("levia_fc1",0,0,2,8)
  ShowMessage("【リヴィア】(Affection:\\V[3205])")
  ShowMessage("我々が直面している世界的危機に比べれば、お前など小物。")
  ShowMessage("少なくとも私達がルカの元にいる間は、見なかった事にしてやる。")
  ShowMessageFace("bonny_fc1",0,0,2,9)
  ShowMessage("【ボニー】(Affection:\\V[3202])")
  ShowMessage("見逃してくれるのは嬉しいが……")
  ShowMessage("小物と言われると、悔しいな……")
  JumpToLabel("メニュー")
  DefineLabel("203")
  ShowMessageFace("tatunoko_k_fc1",1,0,2,10)
  ShowMessage("【たつこ】(Affection:\\V[3203])")
  ShowMessage("大将殿！　お疲れ様なのです！")
  ShowMessageFace("levia_fc1",0,0,2,11)
  ShowMessage("【リヴィア】(Affection:\\V[3205])")
  ShowMessage("うむ……えっと、お前は確か……")
  ShowMessageFace("tatunoko_k_fc1",1,0,2,12)
  ShowMessage("【たつこ】(Affection:\\V[3203])")
  ShowMessage("お忘れですか、大将殿？")
  ShowMessage("あたしは、たつこなのです！")
  ShowMessageFace("levia_fc1",0,0,2,13)
  ShowMessage("【リヴィア】(Affection:\\V[3205])")
  ShowMessage("（たつこという名の海兵も、200人以上……")
  ShowMessage("　おまけに、みんな同じ顔……どう覚えろというのだ）")
  JumpToLabel("メニュー")
  DefineLabel("204")
  ShowMessageFace("levia_fc1",0,0,2,14)
  ShowMessage("【リヴィア】(Affection:\\V[3205])")
  ShowMessage("ウミウシ海兵、トワナ号の臨検報告はどうなった？")
  ShowMessage("報告書が出ていないようだが……")
  ShowMessageFace("umiusi_k_fc1",1,0,2,15)
  ShowMessage("【ステイシー】(Affection:\\V[3204])")
  ShowMessage("ああ、あの報告書ですか？")
  ShowMessage("粘液でヌルヌルになったから、捨てちゃいました♪")
  ShowMessageFace("levia_fc1",0,0,2,16)
  ShowMessage("【リヴィア】(Affection:\\V[3205])")
  ShowMessage("ヌルヌルになったなら仕方ないな……")
  ShowMessage("さて、今月分の報酬であるメザシをやろう。")
  ShowMessageFace("umiusi_k_fc1",0,0,2,17)
  ShowMessage("【ステイシー】(Affection:\\V[3204])")
  ShowMessage("大将殿……あたしはたつのこちゃんではないですよ。")
  ShowMessage("メザシではなく、給料をもらいたいんですけど。")
  If(0,6,0)
   ShowMessageFace("sonia_fc4",0,0,2,18)
   ShowMessage("【ソニア】")
   ShowMessage("こんなので、海の治安は大丈夫なの……？")
   0()
  EndIf()
  JumpToLabel("メニュー")
  DefineLabel("329")
  ShowMessageFace("levia_fc1",0,0,2,19)
  ShowMessage("【リヴィア】(Affection:\\V[3205])")
  ShowMessage("クラーケン……")
  ShowMessage("このたびは、ずいぶんと大変だったようだな。")
  ShowMessageFace("kraken_fc1",0,0,2,20)
  ShowMessage("【クラーケン】(Affection:\\V[3329])")
  ShowMessage("スルメと化してしまうとは……")
  ShowMessage("まったく、とんだ災難でした。")
  ShowMessageFace("levia_fc1",0,0,2,21)
  ShowMessage("【リヴィア】(Affection:\\V[3205])")
  ShowMessage("……なんだか、小腹が空いてきたな。")
  ShowMessage("触手を一本、もらっても良いか？")
  ShowMessageFace("kraken_fc1",0,0,2,22)
  ShowMessage("【クラーケン】(Affection:\\V[3329])")
  ShowMessage("良いはずがないでしょう。")
  JumpToLabel("メニュー")
  DefineLabel("536")
  ShowMessageFace("serene_fc1",4,0,2,23)
  ShowMessage("【セレーネ】(Affection:\\V[3536])")
  ShowMessage("またこうやって、リヴァイアちゃんと旅ができるなんてね……")
  ShowMessageFace("levia_fc1",0,0,2,24)
  ShowMessage("【リヴィア】(Affection:\\V[3205])")
  ShowMessage("それは誠に嬉しいのですが……")
  ShowMessage("リヴァイアちゃんというのは、勘弁願えませんか？")
  ShowMessageFace("serene_fc1",4,0,2,25)
  ShowMessage("【セレーネ】(Affection:\\V[3536])")
  ShowMessage("それにしても、以前は手乗りサイズだったのに……")
  ShowMessage("今じゃ、私が背に乗れるくらいね。")
  ShowMessageFace("levia_fc1",1,0,2,26)
  ShowMessage("【リヴィア】(Affection:\\V[3205])")
  ShowMessage("お望みなら、乗ってみますか？")
  ShowMessage("乗り心地は保証しませんが……")
  If(0,1203,0)
   ShowMessageFace("tatunoko_k_fc1",1,0,2,27)
   ShowMessage("【たつこ】(Affection:\\V[3203])")
   ShowMessage("あたしも、リヴァイアちゃんの背に乗りたいのです！")
   ShowMessageFace("levia_fc1",2,0,2,28)
   ShowMessage("【リヴィア】(Affection:\\V[3205])")
   ShowMessage("ダメだ！　あとリヴァイアちゃんと呼ぶな！")
   0()
  EndIf()
  JumpToLabel("メニュー")
  DefineLabel("メニュー")
  StartLoop()
   355("unlimited_choices(11, [\"Give presents\",")
   655("\"Add to party\",")
   655("\"View present list\",\"Request\",")
   655("\"Never mind\"])")
   If(1,11,0,0,0)
    355("present_start(205)")
    0()
   EndIf()
   If(1,11,0,1,0)
    PictureClear(5)
    355("move_actor_ex(205)")
    EndEventProcessing()
    0()
   EndIf()
   If(1,11,0,2,0)
    ShowMessageFace("",0,0,2,29)
    ShowMessage("Affection       500:\\ia[1537]")
    ShowMessage("Affection     2000:\\ia[1443]")
    ShowMessage("Affection     4000:\\ia[1716]")
    ShowMessage("Affection     6000:\\ia[1632]")
    0()
   EndIf()
   If(1,11,0,3,0)
    PictureClear(5)
    ShowMessageFace("",0,0,2,30)
    ShowMessage("Ask her for what? (Affection:\\V[3205])")
    ShowChoices(strings("Vaginal Swallow(Affection:10)","Vaginal Swallow...?(Affection:100)","Never mind"),3)
    IfPlayerPicksChoice(0,null)
     If(1,3205,0,10,1)
      355("call_novel_scene(4836)")
      EndEventProcessing()
      0()
     Else()
      ShowMessageFace("levia_fc1",0,0,2,31)
      ShowMessage("【リヴィア】(Affection:\\V[3205])")
      ShowMessage("ずいぶん気安いな……")
      0()
     EndIf()
     0()
    IfPlayerPicksChoice(1,null)
     If(1,3205,0,100,1)
      355("call_novel_scene(4837)")
      EndEventProcessing()
      0()
     Else()
      ShowMessageFace("levia_fc1",0,0,2,32)
      ShowMessage("【リヴィア】(Affection:\\V[3205])")
      ShowMessage("ずいぶん気安いな……")
      0()
     EndIf()
     0()
    IfPlayerPicksChoice(2,null)
     0()
    404()
    0()
   EndIf()
   If(1,11,0,4,1)
    PictureClear(5)
    EndEventProcessing()
    0()
   EndIf()
   0()
  EndLoop()
  0()
 PAGE   2
  // condition: party contains actor #205
  0()



EVENT   4
 PAGE   1
  // condition: switch 1280 is ON
  PictureDisplay(5,"80_poseidones_st01",0,0,0,0,100,100,0,0)
  PictureMove(5,null,0,0,0,0,100,100,255,0,30,true)
  If(1,3280,0,500,1)
   If(1,4280,0,0,0)
    ChangeVariable(4280,4280,0,0,1)
    ShowMessageFace("poseidones_fc1",0,0,2,1)
    ShowMessage("【ポセイドネス】(Affection:\\V[3280])")
    ShowMessage("これを使え、海の宝だ……")
    250(bytes(0x04,0x08,0x6f,0x3a,0x0c,0x52,0x50,0x47,0x3a,0x3a,0x53,0x45,0x08,0x3a,0x0a,0x40,0x6e,0x61,0x6d,0x65,0x49,0x22,0x0a,0x49,0x74,0x65,0x6d,0x31,0x06,0x3a,0x06,0x45,0x54,0x3a,0x0b,0x40,0x70,0x69,0x74,0x63,0x68,0x69,0x69,0x3a,0x0c,0x40,0x76,0x6f,0x6c,0x75,0x6d,0x65,0x69,0x55))
    ChangeInventoryArmor(1588,0,0,1,false)
    0()
   EndIf()
   0()
  EndIf()
  If(1,3280,0,2000,1)
   If(1,4280,0,1,0)
    ChangeVariable(4280,4280,0,0,2)
    ShowMessageFace("poseidones_fc1",0,0,2,2)
    ShowMessage("【ポセイドネス】(Affection:\\V[3280])")
    ShowMessage("これを使え、海の宝だ……")
    250(bytes(0x04,0x08,0x6f,0x3a,0x0c,0x52,0x50,0x47,0x3a,0x3a,0x53,0x45,0x08,0x3a,0x0a,0x40,0x6e,0x61,0x6d,0x65,0x49,0x22,0x0a,0x49,0x74,0x65,0x6d,0x31,0x06,0x3a,0x06,0x45,0x54,0x3a,0x0b,0x40,0x70,0x69,0x74,0x63,0x68,0x69,0x69,0x3a,0x0c,0x40,0x76,0x6f,0x6c,0x75,0x6d,0x65,0x69,0x55))
    ChangeInventoryArmor(1513,0,0,1,false)
    0()
   EndIf()
   0()
  EndIf()
  If(1,3280,0,4000,1)
   If(1,4280,0,2,0)
    ChangeVariable(4280,4280,0,0,3)
    ShowMessageFace("poseidones_fc1",0,0,2,3)
    ShowMessage("【ポセイドネス】(Affection:\\V[3280])")
    ShowMessage("これを使え、海の宝だ……")
    250(bytes(0x04,0x08,0x6f,0x3a,0x0c,0x52,0x50,0x47,0x3a,0x3a,0x53,0x45,0x08,0x3a,0x0a,0x40,0x6e,0x61,0x6d,0x65,0x49,0x22,0x0a,0x49,0x74,0x65,0x6d,0x31,0x06,0x3a,0x06,0x45,0x54,0x3a,0x0b,0x40,0x70,0x69,0x74,0x63,0x68,0x69,0x69,0x3a,0x0c,0x40,0x76,0x6f,0x6c,0x75,0x6d,0x65,0x69,0x55))
    ChangeInventoryArmor(1370,0,0,1,false)
    0()
   EndIf()
   0()
  EndIf()
  If(1,3280,0,6000,1)
   If(1,4280,0,3,0)
    ChangeVariable(4280,4280,0,0,4)
    ShowMessageFace("poseidones_fc1",0,0,2,4)
    ShowMessage("【ポセイドネス】(Affection:\\V[3280])")
    ShowMessage("これを使え、海の宝だ……")
    250(bytes(0x04,0x08,0x6f,0x3a,0x0c,0x52,0x50,0x47,0x3a,0x3a,0x53,0x45,0x08,0x3a,0x0a,0x40,0x6e,0x61,0x6d,0x65,0x49,0x22,0x0a,0x49,0x74,0x65,0x6d,0x31,0x06,0x3a,0x06,0x45,0x54,0x3a,0x0b,0x40,0x70,0x69,0x74,0x63,0x68,0x69,0x69,0x3a,0x0c,0x40,0x76,0x6f,0x6c,0x75,0x6d,0x65,0x69,0x55))
    ChangeInventoryArmor(1122,0,0,1,false)
    0()
   EndIf()
   0()
  EndIf()
  355("actor_label_jump")
  ShowMessageFace("poseidones_fc1",0,0,2,5)
  ShowMessage("【ポセイドネス】(Affection:\\V[3280])")
  ShowMessage("私の足を、こっそりちぎって食べる奴は多いが……")
  ShowMessage("先日は、カニのハサミまで食われたぞ。")
  JumpToLabel("メニュー")
  DefineLabel("225")
  ShowMessageFace("hutakuti_fc1",0,0,2,6)
  ShowMessage("【さくら】(Affection:\\V[3225])")
  ShowMessage("タコの触手、すごくおいしそう……")
  ShowMessageFace("poseidones_fc1",0,0,2,7)
  ShowMessage("【ポセイドネス】(Affection:\\V[3280])")
  ShowMessage("そんな目で、私を見るな……")
  ShowMessageFace("hutakuti_fc1",0,0,2,8)
  ShowMessage("【さくら】(Affection:\\V[3225])")
  ShowMessage("カニのハサミも、すごく身が詰まってそう……")
  ShowMessageFace("poseidones_fc1",0,0,2,9)
  ShowMessage("【ポセイドネス】(Affection:\\V[3280])")
  ShowMessage("見るなと言っている……")
  JumpToLabel("メニュー")
  DefineLabel("309")
  ShowMessageFace("poseidones_fc1",0,0,2,10)
  ShowMessage("【ポセイドネス】(Affection:\\V[3280])")
  ShowMessage("マンタよ……いたずらに海を荒らしてはいないだろうな？")
  ShowMessageFace("manta_fc1",1,0,2,11)
  ShowMessage("【オーシャン】(Affection:\\V[3309])")
  ShowMessage("私は温厚な魔物だぞ、北海の女王よ。")
  ShowMessage("穏やかな海を望みこそすれ、荒らしなどしない……")
  ShowMessageFace("poseidones_fc1",0,0,2,12)
  ShowMessage("【ポセイドネス】(Affection:\\V[3280])")
  ShowMessage("またイッカクと争ってはいないだろうな……？")
  ShowMessageFace("manta_fc1",0,0,2,13)
  ShowMessage("【オーシャン】(Affection:\\V[3309])")
  ShowMessage("私とイッカクは、大海の宿敵……")
  ShowMessage("北海の女王が相手でも、こればかりは譲れん！")
  ShowMessageFace("poseidones_fc1",2,0,2,14)
  ShowMessage("【ポセイドネス】(Affection:\\V[3280])")
  ShowMessage("やれやれ、まったく……")
  ShowMessage("船や他の生物は巻き込むなよ。")
  JumpToLabel("メニュー")
  DefineLabel("329")
  ShowMessageFace("poseidones_fc1",1,0,2,15)
  ShowMessage("【ポセイドネス】(Affection:\\V[3280])")
  ShowMessage("クラーケンよ、さっそく飲みに行かないか？")
  ShowMessageFace("kraken_fc1",1,0,2,16)
  ShowMessage("【クラーケン】(Affection:\\V[3329])")
  ShowMessage("いいですね！　ぐびぐびぐび……")
  ShowMessageFace("poseidones_fc1",1,0,2,17)
  ShowMessage("【ポセイドネス】(Affection:\\V[3280])")
  ShowMessage("ワーッハッハッハ！　ぐびぐびぐび……")
  ShowMessageFace("kraken_fc1",1,0,2,18)
  ShowMessage("【クラーケン】(Affection:\\V[3329])")
  ShowMessage("ぐびぐび……ウィー！")
  ShowMessageFace("poseidones_fc1",1,0,2,19)
  ShowMessage("【ポセイドネス】(Affection:\\V[3280])")
  ShowMessage("ウェーイ！")
  ShowMessageFace("kraken_fc1",1,0,2,20)
  ShowMessage("【クラーケン】(Affection:\\V[3329])")
  ShowMessage("ウェーイ！")
  JumpToLabel("メニュー")
  DefineLabel("378")
  ShowMessageFace("poseidones_fc1",0,0,2,21)
  ShowMessage("【ポセイドネス】(Affection:\\V[3280])")
  ShowMessage("ゼノビアか……")
  ShowMessage("かつての深海王が、まさかの復帰とはな。")
  ShowMessageFace("cirqueb_fc6",0,0,2,22)
  ShowMessage("【ゼノビア】(Affection:\\V[3378])")
  ShowMessage("役職に復帰するつもりなどありません。")
  ShowMessage("あくまで、世界を救う手助けをするのみです……")
  ShowMessageFace("poseidones_fc1",0,0,2,23)
  ShowMessage("【ポセイドネス】(Affection:\\V[3280])")
  ShowMessage("そうか、それは残念だ……")
  ShowMessage("少しばかり荷が軽くなると思ったのだがな。")
  ShowMessageFace("cirqueb_fc6",0,0,2,24)
  ShowMessage("【ゼノビア】(Affection:\\V[3378])")
  ShowMessage("あなたとクラーケン……それに海軍がいれば十分です。")
  ShowMessage("今さら、墓より這い出た者の出る幕ではありませんよ……")
  JumpToLabel("メニュー")
  DefineLabel("メニュー")
  StartLoop()
   355("unlimited_choices(11, [\"Give presents\",")
   655("\"Add to party\",")
   655("\"View present list\",\"Request\",")
   655("\"Never mind\"])")
   If(1,11,0,0,0)
    355("present_start(280)")
    0()
   EndIf()
   If(1,11,0,1,0)
    PictureClear(5)
    355("move_actor_ex(280)")
    EndEventProcessing()
    0()
   EndIf()
   If(1,11,0,2,0)
    ShowMessageFace("",0,0,2,25)
    ShowMessage("Affection       500:\\ia[1588]")
    ShowMessage("Affection     2000:\\ia[1513]")
    ShowMessage("Affection     4000:\\ia[1370]")
    ShowMessage("Affection     6000:\\ia[1122]")
    0()
   EndIf()
   If(1,11,0,3,0)
    PictureClear(5)
    ShowMessageFace("",0,0,2,26)
    ShowMessage("Ask her for what? (Affection:\\V[3280])")
    ShowChoices(strings("Bound Anal Raid(Affection:10)","Never mind"),2)
    IfPlayerPicksChoice(0,null)
     If(1,3280,0,10,1)
      355("call_novel_scene(5211)")
      EndEventProcessing()
      0()
     Else()
      ShowMessageFace("poseidones_fc1",0,0,2,27)
      ShowMessage("【ポセイドネス】(Affection:\\V[3280])")
      ShowMessage("まだ時期尚早だな……")
      0()
     EndIf()
     0()
    IfPlayerPicksChoice(1,null)
     0()
    404()
    0()
   EndIf()
   If(1,11,0,4,1)
    PictureClear(5)
    EndEventProcessing()
    0()
   EndIf()
   0()
  EndLoop()
  0()
 PAGE   2
  // condition: party contains actor #280
  0()



EVENT   5
 PAGE   1
  // condition: switch 1329 is ON
  PictureDisplay(5,"80_kraken_st01",0,0,0,0,100,100,0,0)
  PictureMove(5,null,0,0,0,0,100,100,255,0,30,true)
  If(1,3329,0,500,1)
   If(1,4329,0,0,0)
    ChangeVariable(4329,4329,0,0,1)
    ShowMessageFace("kraken_fc1",0,0,2,1)
    ShowMessage("【クラーケン】(Affection:\\V[3329])")
    ShowMessage("この秘宝を授けましょう。")
    250(bytes(0x04,0x08,0x6f,0x3a,0x0c,0x52,0x50,0x47,0x3a,0x3a,0x53,0x45,0x08,0x3a,0x0a,0x40,0x6e,0x61,0x6d,0x65,0x49,0x22,0x0a,0x49,0x74,0x65,0x6d,0x31,0x06,0x3a,0x06,0x45,0x54,0x3a,0x0b,0x40,0x70,0x69,0x74,0x63,0x68,0x69,0x69,0x3a,0x0c,0x40,0x76,0x6f,0x6c,0x75,0x6d,0x65,0x69,0x55))
    ChangeInventoryArmor(1715,0,0,1,false)
    0()
   EndIf()
   0()
  EndIf()
  If(1,3329,0,2000,1)
   If(1,4329,0,1,0)
    ChangeVariable(4329,4329,0,0,2)
    ShowMessageFace("kraken_fc1",0,0,2,2)
    ShowMessage("【クラーケン】(Affection:\\V[3329])")
    ShowMessage("この秘宝を授けましょう。")
    250(bytes(0x04,0x08,0x6f,0x3a,0x0c,0x52,0x50,0x47,0x3a,0x3a,0x53,0x45,0x08,0x3a,0x0a,0x40,0x6e,0x61,0x6d,0x65,0x49,0x22,0x0a,0x49,0x74,0x65,0x6d,0x31,0x06,0x3a,0x06,0x45,0x54,0x3a,0x0b,0x40,0x70,0x69,0x74,0x63,0x68,0x69,0x69,0x3a,0x0c,0x40,0x76,0x6f,0x6c,0x75,0x6d,0x65,0x69,0x55))
    ChangeInventoryArmor(1186,0,0,1,false)
    0()
   EndIf()
   0()
  EndIf()
  If(1,3329,0,4000,1)
   If(1,4329,0,2,0)
    ChangeVariable(4329,4329,0,0,3)
    ShowMessageFace("kraken_fc1",0,0,2,3)
    ShowMessage("【クラーケン】(Affection:\\V[3329])")
    ShowMessage("この秘宝を授けましょう。")
    250(bytes(0x04,0x08,0x6f,0x3a,0x0c,0x52,0x50,0x47,0x3a,0x3a,0x53,0x45,0x08,0x3a,0x0a,0x40,0x6e,0x61,0x6d,0x65,0x49,0x22,0x0a,0x49,0x74,0x65,0x6d,0x31,0x06,0x3a,0x06,0x45,0x54,0x3a,0x0b,0x40,0x70,0x69,0x74,0x63,0x68,0x69,0x69,0x3a,0x0c,0x40,0x76,0x6f,0x6c,0x75,0x6d,0x65,0x69,0x55))
    ChangeInventoryArmor(1370,0,0,1,false)
    0()
   EndIf()
   0()
  EndIf()
  If(1,3329,0,6000,1)
   If(1,4329,0,3,0)
    ChangeVariable(4329,4329,0,0,4)
    ShowMessageFace("kraken_fc1",0,0,2,4)
    ShowMessage("【クラーケン】(Affection:\\V[3329])")
    ShowMessage("この秘宝を授けましょう。")
    250(bytes(0x04,0x08,0x6f,0x3a,0x0c,0x52,0x50,0x47,0x3a,0x3a,0x53,0x45,0x08,0x3a,0x0a,0x40,0x6e,0x61,0x6d,0x65,0x49,0x22,0x0a,0x49,0x74,0x65,0x6d,0x31,0x06,0x3a,0x06,0x45,0x54,0x3a,0x0b,0x40,0x70,0x69,0x74,0x63,0x68,0x69,0x69,0x3a,0x0c,0x40,0x76,0x6f,0x6c,0x75,0x6d,0x65,0x69,0x55))
    ChangeInventoryArmor(1676,0,0,1,false)
    0()
   EndIf()
   0()
  EndIf()
  355("actor_label_jump")
  ShowMessageFace("kraken_fc1",0,0,2,5)
  ShowMessage("【クラーケン】(Affection:\\V[3329])")
  ShowMessage("さて、ひと暴れしましょうか。")
  ShowMessage("運動した後は、ごはんが美味しいですからね……")
  JumpToLabel("メニュー")
  DefineLabel("205")
  ShowMessageFace("levia_fc1",0,0,2,6)
  ShowMessage("【リヴィア】(Affection:\\V[3205])")
  ShowMessage("クラーケン……")
  ShowMessage("このたびは、ずいぶんと大変だったようだな。")
  ShowMessageFace("kraken_fc1",0,0,2,7)
  ShowMessage("【クラーケン】(Affection:\\V[3329])")
  ShowMessage("スルメと化してしまうとは……")
  ShowMessage("まったく、とんだ災難でした。")
  ShowMessageFace("levia_fc1",0,0,2,8)
  ShowMessage("【リヴィア】(Affection:\\V[3205])")
  ShowMessage("……なんだか、小腹が空いてきたな。")
  ShowMessage("触手を一本、もらっても良いか？")
  ShowMessageFace("kraken_fc1",0,0,2,9)
  ShowMessage("【クラーケン】(Affection:\\V[3329])")
  ShowMessage("良いはずがないでしょう。")
  JumpToLabel("メニュー")
  DefineLabel("280")
  ShowMessageFace("poseidones_fc1",1,0,2,10)
  ShowMessage("【ポセイドネス】(Affection:\\V[3280])")
  ShowMessage("クラーケンよ、さっそく飲みに行かないか？")
  ShowMessageFace("kraken_fc1",1,0,2,11)
  ShowMessage("【クラーケン】(Affection:\\V[3329])")
  ShowMessage("いいですね！　ぐびぐびぐび……")
  ShowMessageFace("poseidones_fc1",1,0,2,12)
  ShowMessage("【ポセイドネス】(Affection:\\V[3280])")
  ShowMessage("ワーッハッハッハ！　ぐびぐびぐび……")
  ShowMessageFace("kraken_fc1",1,0,2,13)
  ShowMessage("【クラーケン】(Affection:\\V[3329])")
  ShowMessage("ぐびぐび……ウィー！")
  ShowMessageFace("poseidones_fc1",1,0,2,14)
  ShowMessage("【ポセイドネス】(Affection:\\V[3280])")
  ShowMessage("ウェーイ！")
  ShowMessageFace("kraken_fc1",1,0,2,15)
  ShowMessage("【クラーケン】(Affection:\\V[3329])")
  ShowMessage("ウェーイ！")
  JumpToLabel("メニュー")
  DefineLabel("310")
  ShowMessageFace("kraken_fc1",0,0,2,16)
  ShowMessage("【クラーケン】(Affection:\\V[3329])")
  ShowMessage("イッカクですか……")
  ShowMessage("相変わらず、勇壮な角ですね。")
  ShowMessageFace("ikkaku_fc1",1,0,2,17)
  ShowMessage("【ホルン】(Affection:\\V[3310])")
  ShowMessage("さすが、南海の女王はお目が高い……")
  ShowMessage("我が大角は、美しさも硬度も一級品だ。")
  ShowMessageFace("kraken_fc1",1,0,2,18)
  ShowMessage("【クラーケン】(Affection:\\V[3329])")
  ShowMessage("実に素晴らしい……")
  ShowMessage("引っこ抜いて、海底神殿に飾りたいですね。")
  ShowMessageFace("ikkaku_fc1",2,0,2,19)
  ShowMessage("【ホルン】(Affection:\\V[3310])")
  ShowMessage("勘弁してくれ……")
  JumpToLabel("メニュー")
  DefineLabel("328")
  ShowMessageFace("kraken_fc1",0,0,2,20)
  ShowMessage("【クラーケン】(Affection:\\V[3329])")
  ShowMessage("クィーンマーメイド……")
  ShowMessage("あなたには、助けて頂いた恩があります。")
  ShowMessageFace("queenmermaid_fc1",0,0,2,21)
  ShowMessage("【ローラ】(Affection:\\V[3328])")
  ShowMessage("気にしないでいいわ……")
  ShowMessageFace("kraken_fc1",0,0,2,22)
  ShowMessage("【クラーケン】(Affection:\\V[3329])")
  ShowMessage("いえいえ、なんらかの形で報いましょう……")
  ShowMessage("ところで、スルメは好きですか？")
  ShowMessageFace("queenmermaid_fc1",0,0,2,23)
  ShowMessage("【ローラ】(Affection:\\V[3328])")
  ShowMessage("食べませんよ……")
  JumpToLabel("メニュー")
  DefineLabel("378")
  ShowMessageFace("kraken_fc1",0,0,2,24)
  ShowMessage("【クラーケン】(Affection:\\V[3329])")
  ShowMessage("ずいぶん久しいですね、ゼノビア……")
  ShowMessage("あなたがいなくなってから、海も騒々しくなりました。")
  ShowMessageFace("cirqueb_fc6",0,0,2,25)
  ShowMessage("【ゼノビア】(Affection:\\V[3378])")
  ShowMessage("しかし、あなたやポセイドネスが平和を保っていてくれた……")
  ShowMessage("……そうなのでしょう？")
  ShowMessageFace("kraken_fc1",0,0,2,26)
  ShowMessage("【クラーケン】(Affection:\\V[3329])")
  ShowMessage("これから、どうするのです？")
  ShowMessage("以前のように、海の統治を支援してくれると助かるのですが……")
  ShowMessageFace("cirqueb_fc6",0,0,2,27)
  ShowMessage("【ゼノビア】(Affection:\\V[3378])")
  ShowMessage("それは、生きている者の仕事。")
  ShowMessage("もはや、墓より這い出た者の出る幕ではありませんよ……")
  JumpToLabel("メニュー")
  DefineLabel("メニュー")
  StartLoop()
   355("unlimited_choices(11, [\"Give presents\",")
   655("\"Add to party\",")
   655("\"View present list\",\"Request\",")
   655("\"Never mind\"])")
   If(1,11,0,0,0)
    355("present_start(329)")
    0()
   EndIf()
   If(1,11,0,1,0)
    PictureClear(5)
    355("move_actor_ex(329)")
    EndEventProcessing()
    0()
   EndIf()
   If(1,11,0,2,0)
    ShowMessageFace("",0,0,2,28)
    ShowMessage("Affection       500:\\ia[1715]")
    ShowMessage("Affection     2000:\\ia[1186]")
    ShowMessage("Affection     4000:\\ia[1370]")
    ShowMessage("Affection     6000:\\ia[1676]")
    0()
   EndIf()
   If(1,11,0,3,0)
    PictureClear(5)
    ShowMessageFace("",0,0,2,29)
    ShowMessage("Ask her for what? (Affection:\\V[3329])")
    ShowChoices(strings("Bound Anal Raid(Affection:10)","Never mind"),2)
    IfPlayerPicksChoice(0,null)
     If(1,3329,0,10,1)
      355("call_novel_scene(5461)")
      EndEventProcessing()
      0()
     Else()
      ShowMessageFace("kraken_fc1",0,0,2,30)
      ShowMessage("【クラーケン】(Affection:\\V[3329])")
      ShowMessage("今は忙しいので……")
      0()
     EndIf()
     0()
    IfPlayerPicksChoice(1,null)
     0()
    404()
    0()
   EndIf()
   If(1,11,0,4,1)
    PictureClear(5)
    EndEventProcessing()
    0()
   EndIf()
   0()
  EndLoop()
  0()
 PAGE   2
  // condition: party contains actor #329
  0()



EVENT   6
 PAGE   1
  // condition: switch 1283 is ON
  PictureDisplay(5,"80_maccubus_st31",0,0,0,0,100,100,0,0)
  PictureMove(5,null,0,0,0,0,100,100,255,0,30,true)
  If(1,3283,0,100,1)
   If(1,4283,0,0,0)
    ChangeVariable(4283,4283,0,0,1)
    ShowMessageFace("maccubus_fc1",1,0,2,1)
    ShowMessage("【メリッサ】(Affection:\\V[3283])")
    ShowMessage("これ、お客さんから貢いでもらったの。")
    250(bytes(0x04,0x08,0x6f,0x3a,0x0c,0x52,0x50,0x47,0x3a,0x3a,0x53,0x45,0x08,0x3a,0x0a,0x40,0x6e,0x61,0x6d,0x65,0x49,0x22,0x0a,0x49,0x74,0x65,0x6d,0x31,0x06,0x3a,0x06,0x45,0x54,0x3a,0x0b,0x40,0x70,0x69,0x74,0x63,0x68,0x69,0x69,0x3a,0x0c,0x40,0x76,0x6f,0x6c,0x75,0x6d,0x65,0x69,0x55))
    ChangeInventoryArmor(1145,0,0,1,false)
    0()
   EndIf()
   0()
  EndIf()
  If(1,3283,0,500,1)
   If(1,4283,0,1,0)
    ChangeVariable(4283,4283,0,0,2)
    ShowMessageFace("maccubus_fc1",1,0,2,2)
    ShowMessage("【メリッサ】(Affection:\\V[3283])")
    ShowMessage("これ、お客さんから貢いでもらったの。")
    250(bytes(0x04,0x08,0x6f,0x3a,0x0c,0x52,0x50,0x47,0x3a,0x3a,0x53,0x45,0x08,0x3a,0x0a,0x40,0x6e,0x61,0x6d,0x65,0x49,0x22,0x0a,0x49,0x74,0x65,0x6d,0x31,0x06,0x3a,0x06,0x45,0x54,0x3a,0x0b,0x40,0x70,0x69,0x74,0x63,0x68,0x69,0x69,0x3a,0x0c,0x40,0x76,0x6f,0x6c,0x75,0x6d,0x65,0x69,0x55))
    ChangeInventoryArmor(1027,0,0,1,false)
    0()
   EndIf()
   0()
  EndIf()
  If(1,3283,0,2000,1)
   If(1,4283,0,2,0)
    ChangeVariable(4283,4283,0,0,3)
    ShowMessageFace("maccubus_fc1",1,0,2,3)
    ShowMessage("【メリッサ】(Affection:\\V[3283])")
    ShowMessage("これ、お客さんから貢いでもらったの。")
    250(bytes(0x04,0x08,0x6f,0x3a,0x0c,0x52,0x50,0x47,0x3a,0x3a,0x53,0x45,0x08,0x3a,0x0a,0x40,0x6e,0x61,0x6d,0x65,0x49,0x22,0x0a,0x49,0x74,0x65,0x6d,0x31,0x06,0x3a,0x06,0x45,0x54,0x3a,0x0b,0x40,0x70,0x69,0x74,0x63,0x68,0x69,0x69,0x3a,0x0c,0x40,0x76,0x6f,0x6c,0x75,0x6d,0x65,0x69,0x55))
    ChangeInventoryArmor(1473,0,0,1,false)
    0()
   EndIf()
   0()
  EndIf()
  If(1,3283,0,4000,1)
   If(1,4283,0,3,0)
    ChangeVariable(4283,4283,0,0,4)
    ShowMessageFace("maccubus_fc1",1,0,2,4)
    ShowMessage("【メリッサ】(Affection:\\V[3283])")
    ShowMessage("これ、お客さんから貢いでもらったの。")
    250(bytes(0x04,0x08,0x6f,0x3a,0x0c,0x52,0x50,0x47,0x3a,0x3a,0x53,0x45,0x08,0x3a,0x0a,0x40,0x6e,0x61,0x6d,0x65,0x49,0x22,0x0a,0x49,0x74,0x65,0x6d,0x31,0x06,0x3a,0x06,0x45,0x54,0x3a,0x0b,0x40,0x70,0x69,0x74,0x63,0x68,0x69,0x69,0x3a,0x0c,0x40,0x76,0x6f,0x6c,0x75,0x6d,0x65,0x69,0x55))
    ChangeInventoryArmor(1361,0,0,1,false)
    0()
   EndIf()
   0()
  EndIf()
  355("actor_label_jump")
  ShowMessageFace("maccubus_fc1",1,0,2,5)
  ShowMessage("【メリッサ】(Affection:\\V[3283])")
  ShowMessage("娼婦の仕事も、最近はご無沙汰よね……")
  ShowMessage("ねぇキミ、少し相手してくれない？")
  JumpToLabel("メニュー")
  DefineLabel("136")
  ShowMessageFace("elf_fc1",0,0,2,6)
  ShowMessage("【クローディア】（好感度：\\V[3136]）")
  ShowMessage("娼婦って、ちょっといいわね……")
  ShowMessage("男が向こうから、列になって搾られに来るんでしょ？")
  ShowMessageFace("maccubus_fc1",1,0,2,7)
  ShowMessage("【メリッサ】(Affection:\\V[3283])")
  ShowMessage("まあ、景気の良い時にはね。")
  ShowMessageFace("elf_fc1",1,0,2,8)
  ShowMessage("【クローディア】（好感度：\\V[3136]）")
  ShowMessage("まあ、清純な私には関係ないけど……")
  ShowMessage("精が搾れて、お金までもらえるって最高よね。")
  ShowMessageFace("maccubus_fc1",1,0,2,9)
  ShowMessage("【メリッサ】(Affection:\\V[3283])")
  ShowMessage("清純……？")
  JumpToLabel("メニュー")
  DefineLabel("282")
  ShowMessageFace("maccubus_fc1",1,0,2,10)
  ShowMessage("【メリッサ】(Affection:\\V[3283])")
  ShowMessage("あっ、メイ……ちょっと奉仕をお願いできない？")
  ShowMessageFace("maycubbus_fc1",0,0,2,11)
  ShowMessage("【メイ】(Affection:\\V[3282])")
  ShowMessage("お断りです。")
  ShowMessage("あの乱雑な部屋は、自分で掃除なさって下さい。")
  ShowMessageFace("maccubus_fc1",1,0,2,12)
  ShowMessage("【メリッサ】(Affection:\\V[3283])")
  ShowMessage("あなた、メイドじゃないの……？")
  ShowMessageFace("maycubbus_fc1",0,0,2,13)
  ShowMessage("【メイ】(Affection:\\V[3282])")
  ShowMessage("私の性奉仕によがり狂うご主人様の顔が好きなのです。")
  ShowMessage("家事など御免被ります。")
  JumpToLabel("メニュー")
  DefineLabel("287")
  ShowMessageFace("succubus_fc1",0,0,2,14)
  ShowMessage("【サキュバス】(Affection:\\V[3287])")
  ShowMessage("どうぞ、イモですよ。")
  ShowMessageFace("maccubus_fc1",5,0,2,15)
  ShowMessage("【メリッサ】(Affection:\\V[3283])")
  ShowMessage("ありがとうございます！")
  ShowMessageFace("succubus_fc1",1,0,2,16)
  ShowMessage("【サキュバス】(Affection:\\V[3287])")
  ShowMessage("あらあら、泣くほど嬉しいんですか……？")
  ShowMessageFace("maccubus_fc1",5,0,2,17)
  ShowMessage("【メリッサ】(Affection:\\V[3283])")
  ShowMessage("そう見えます！？")
  JumpToLabel("メニュー")
  DefineLabel("メニュー")
  StartLoop()
   355("unlimited_choices(11, [\"Give presents\",")
   655("\"Add to party\",")
   655("\"View present list\",\"Request\",")
   655("\"Never mind\"])")
   If(1,11,0,0,0)
    355("present_start(283)")
    0()
   EndIf()
   If(1,11,0,1,0)
    PictureClear(5)
    355("move_actor_ex(283)")
    EndEventProcessing()
    0()
   EndIf()
   If(1,11,0,2,0)
    ShowMessageFace("",0,0,2,18)
    ShowMessage("Affection       100:\\ia[1145]")
    ShowMessage("Affection       500:\\ia[1027]")
    ShowMessage("Affection     2000:\\ia[1473]")
    ShowMessage("Affection     4000:\\ia[1361]")
    0()
   EndIf()
   If(1,11,0,3,0)
    PictureClear(5)
    ShowMessageFace("",0,0,2,19)
    ShowMessage("Ask her for what? (Affection:\\V[3283])")
    ShowChoices(strings("Paizuri(Affection:10)","Blowjob(Affection:50)","Reverse Rape(Affection:100)","Never mind"),4)
    IfPlayerPicksChoice(0,null)
     If(1,3283,0,10,1)
      355("call_novel_scene(5226)")
      EndEventProcessing()
      0()
     Else()
      ShowMessageFace("maccubus_fc1",1,0,2,20)
      ShowMessage("【メリッサ】(Affection:\\V[3283])")
      ShowMessage("チェンジで。")
      0()
     EndIf()
     0()
    IfPlayerPicksChoice(1,null)
     If(1,3283,0,50,1)
      355("call_novel_scene(5227)")
      EndEventProcessing()
      0()
     Else()
      ShowMessageFace("maccubus_fc1",1,0,2,21)
      ShowMessage("【メリッサ】(Affection:\\V[3283])")
      ShowMessage("チェンジで。")
      0()
     EndIf()
     0()
    IfPlayerPicksChoice(2,null)
     If(1,3283,0,100,1)
      355("call_novel_scene(5228)")
      EndEventProcessing()
      0()
     Else()
      ShowMessageFace("maccubus_fc1",1,0,2,22)
      ShowMessage("【メリッサ】(Affection:\\V[3283])")
      ShowMessage("チェンジで。")
      0()
     EndIf()
     0()
    IfPlayerPicksChoice(3,null)
     0()
    404()
    0()
   EndIf()
   If(1,11,0,4,1)
    PictureClear(5)
    EndEventProcessing()
    0()
   EndIf()
   0()
  EndLoop()
  0()
 PAGE   2
  // condition: party contains actor #283
  0()



EVENT   7
 PAGE   1
  // condition: switch 1326 is ON
  PictureDisplay(5,"80_loreley_st01",0,0,0,0,100,100,0,0)
  PictureMove(5,null,0,0,0,0,100,100,255,0,30,true)
  If(1,3326,0,500,1)
   If(1,4326,0,0,0)
    ChangeVariable(4326,4326,0,0,1)
    ShowMessageFace("loreley_fc1",0,0,2,1)
    ShowMessage("【ハイネ】(Affection:\\V[3326])")
    ShowMessage("これを使って……")
    250(bytes(0x04,0x08,0x6f,0x3a,0x0c,0x52,0x50,0x47,0x3a,0x3a,0x53,0x45,0x08,0x3a,0x0a,0x40,0x6e,0x61,0x6d,0x65,0x49,0x22,0x0a,0x49,0x74,0x65,0x6d,0x31,0x06,0x3a,0x06,0x45,0x54,0x3a,0x0b,0x40,0x70,0x69,0x74,0x63,0x68,0x69,0x69,0x3a,0x0c,0x40,0x76,0x6f,0x6c,0x75,0x6d,0x65,0x69,0x55))
    ChangeInventoryArmor(1554,0,0,1,false)
    0()
   EndIf()
   0()
  EndIf()
  If(1,3326,0,2000,1)
   If(1,4326,0,1,0)
    ChangeVariable(4326,4326,0,0,2)
    ShowMessageFace("loreley_fc1",0,0,2,2)
    ShowMessage("【ハイネ】(Affection:\\V[3326])")
    ShowMessage("これを使って……")
    250(bytes(0x04,0x08,0x6f,0x3a,0x0c,0x52,0x50,0x47,0x3a,0x3a,0x53,0x45,0x08,0x3a,0x0a,0x40,0x6e,0x61,0x6d,0x65,0x49,0x22,0x0a,0x49,0x74,0x65,0x6d,0x31,0x06,0x3a,0x06,0x45,0x54,0x3a,0x0b,0x40,0x70,0x69,0x74,0x63,0x68,0x69,0x69,0x3a,0x0c,0x40,0x76,0x6f,0x6c,0x75,0x6d,0x65,0x69,0x55))
    ChangeInventoryArmor(1062,0,0,1,false)
    0()
   EndIf()
   0()
  EndIf()
  If(1,3326,0,4000,1)
   If(1,4326,0,2,0)
    ChangeVariable(4326,4326,0,0,3)
    ShowMessageFace("loreley_fc1",0,0,2,3)
    ShowMessage("【ハイネ】(Affection:\\V[3326])")
    ShowMessage("これを使って……")
    250(bytes(0x04,0x08,0x6f,0x3a,0x0c,0x52,0x50,0x47,0x3a,0x3a,0x53,0x45,0x08,0x3a,0x0a,0x40,0x6e,0x61,0x6d,0x65,0x49,0x22,0x0a,0x49,0x74,0x65,0x6d,0x31,0x06,0x3a,0x06,0x45,0x54,0x3a,0x0b,0x40,0x70,0x69,0x74,0x63,0x68,0x69,0x69,0x3a,0x0c,0x40,0x76,0x6f,0x6c,0x75,0x6d,0x65,0x69,0x55))
    ChangeInventoryArmor(1526,0,0,1,false)
    0()
   EndIf()
   0()
  EndIf()
  If(1,3326,0,6000,1)
   If(1,4326,0,3,0)
    ChangeVariable(4326,4326,0,0,4)
    ShowMessageFace("loreley_fc1",0,0,2,4)
    ShowMessage("【ハイネ】(Affection:\\V[3326])")
    ShowMessage("これを使って……")
    250(bytes(0x04,0x08,0x6f,0x3a,0x0c,0x52,0x50,0x47,0x3a,0x3a,0x53,0x45,0x08,0x3a,0x0a,0x40,0x6e,0x61,0x6d,0x65,0x49,0x22,0x0a,0x49,0x74,0x65,0x6d,0x31,0x06,0x3a,0x06,0x45,0x54,0x3a,0x0b,0x40,0x70,0x69,0x74,0x63,0x68,0x69,0x69,0x3a,0x0c,0x40,0x76,0x6f,0x6c,0x75,0x6d,0x65,0x69,0x55))
    ChangeInventoryArmor(1515,0,0,1,false)
    0()
   EndIf()
   0()
  EndIf()
  355("actor_label_jump")
  ShowMessageFace("loreley_fc1",0,0,2,5)
  ShowMessage("【ハイネ】(Affection:\\V[3326])")
  ShowMessage("人魚は皆、おおらかで心優しいけれど……")
  ShowMessage("私は例外なのよ……")
  JumpToLabel("メニュー")
  DefineLabel("272")
  ShowMessageFace("loreley_fc1",0,0,2,6)
  ShowMessage("【ハイネ】(Affection:\\V[3326])")
  ShowMessage("ここでセイレーンを見るなんて意外ね……")
  ShowMessage("私も歌は得意よ。")
  ShowMessageFace("seiren_fc1",0,0,2,7)
  ShowMessage("【レーネ】(Affection:\\V[3272])")
  ShowMessage("海には、誘惑の歌を歌う者が多いわね。")
  ShowMessage("なぜなのかしら……")
  ShowMessageFace("loreley_fc1",0,0,2,8)
  ShowMessage("【ハイネ】(Affection:\\V[3326])")
  ShowMessage("声が良く響くからじゃない？")
  ShowMessage("広い海だと、獲物が向こうから誘い寄せられるのも楽だし……")
  ShowMessageFace("seiren_fc1",0,0,2,9)
  ShowMessage("【レーネ】(Affection:\\V[3272])")
  ShowMessage("なるほど……海は広いものね。")
  JumpToLabel("メニュー")
  DefineLabel("328")
  ShowMessageFace("queenmermaid_fc1",0,0,2,10)
  ShowMessage("【ローラ】(Affection:\\V[3328])")
  ShowMessage("ハイネ……あなたは、人間を憎んだ事はないの？")
  ShowMessageFace("loreley_fc1",0,0,2,11)
  ShowMessage("【ハイネ】(Affection:\\V[3326])")
  ShowMessage("あまり、関わりませんから……")
  ShowMessageFace("queenmermaid_fc1",0,0,2,12)
  ShowMessage("【ローラ】(Affection:\\V[3328])")
  ShowMessage("でも、これからの時代はそうはいかないわ……")
  ShowMessage("同胞と力を合わせ、共に歩んでいきましょう。")
  ShowMessageFace("loreley_fc1",0,0,2,13)
  ShowMessage("【ハイネ】(Affection:\\V[3326])")
  ShowMessage("ご一緒します、女王陛下……")
  JumpToLabel("メニュー")
  DefineLabel("333")
  ShowMessageFace("loreley_fc1",0,0,2,14)
  ShowMessage("【ハイネ】(Affection:\\V[3326])")
  ShowMessage("蜘蛛の古代種……")
  ShowMessageFace("atlach_fc1",0,0,2,15)
  ShowMessage("【ナクア】(Affection:\\V[3333])")
  ShowMessage("あなたは、人魚の古代種ですね。")
  ShowMessage("お互い、孤独でしょう……")
  ShowMessageFace("loreley_fc1",0,0,2,16)
  ShowMessage("【ハイネ】(Affection:\\V[3326])")
  ShowMessage("確かに、同種は少ないけど……")
  ShowMessage("仲間には恵まれているわ。")
  ShowMessageFace("atlach_fc1",0,0,2,17)
  ShowMessage("【ナクア】(Affection:\\V[3333])")
  ShowMessage("そう、良かったですね。")
  ShowMessage("蜘蛛同士の付き合いはドライなので、困ります……")
  JumpToLabel("メニュー")
  DefineLabel("337")
  ShowMessageFace("loreley_fc1",0,0,2,18)
  ShowMessage("【ハイネ】(Affection:\\V[3326])")
  ShowMessage("あなたは、吸血鬼の古代種ね……")
  ShowMessageFace("e_vampire_fc1",0,0,2,19)
  ShowMessage("【ヴァルヘルト】(Affection:\\V[3337])")
  ShowMessage("ふん、お前は人魚の古代種か……")
  ShowMessage("さほど現世の人魚と変わらんな。")
  ShowMessageFace("loreley_fc1",0,0,2,20)
  ShowMessage("【ハイネ】(Affection:\\V[3326])")
  ShowMessage("そう言うあなたは、普通の吸血鬼とずいぶん違うわね……")
  ShowMessage("仲良くできているの？")
  ShowMessageFace("e_vampire_fc1",0,0,2,21)
  ShowMessage("【ヴァルヘルト】(Affection:\\V[3337])")
  ShowMessage("同胞は、細かい事は気にしない。")
  ShowMessage("高貴なる者は、つまらない事に拘りはしないのだ。")
  JumpToLabel("メニュー")
  DefineLabel("メニュー")
  StartLoop()
   355("unlimited_choices(11, [\"Give presents\",")
   655("\"Add to party\",")
   655("\"View present list\",\"Request\",")
   655("\"Never mind\"])")
   If(1,11,0,0,0)
    355("present_start(326)")
    0()
   EndIf()
   If(1,11,0,1,0)
    PictureClear(5)
    355("move_actor_ex(326)")
    EndEventProcessing()
    0()
   EndIf()
   If(1,11,0,2,0)
    ShowMessageFace("",0,0,2,22)
    ShowMessage("Affection       500:\\ia[1554]")
    ShowMessage("Affection     2000:\\ia[1062]")
    ShowMessage("Affection     4000:\\ia[1525]")
    ShowMessage("Affection     6000:\\ia[1526]")
    0()
   EndIf()
   If(1,11,0,3,0)
    PictureClear(5)
    ShowMessageFace("",0,0,2,23)
    ShowMessage("Ask her for what? (Affection:\\V[3326])")
    ShowChoices(strings("Full-Body Bubble Wash(Affection:10)","Reverse Rape(Affection:100)","Never mind"),3)
    IfPlayerPicksChoice(0,null)
     If(1,3326,0,10,1)
      355("call_novel_scene(5446)")
      EndEventProcessing()
      0()
     Else()
      ShowMessageFace("loreley_fc1",0,0,2,24)
      ShowMessage("【ハイネ】(Affection:\\V[3326])")
      ShowMessage("今は嫌よ……")
      0()
     EndIf()
     0()
    IfPlayerPicksChoice(1,null)
     If(1,3326,0,100,1)
      355("call_novel_scene(5447)")
      EndEventProcessing()
      0()
     Else()
      ShowMessageFace("loreley_fc1",0,0,2,25)
      ShowMessage("【ハイネ】(Affection:\\V[3326])")
      ShowMessage("今は嫌よ……")
      0()
     EndIf()
     0()
    IfPlayerPicksChoice(2,null)
     0()
    404()
    0()
   EndIf()
   If(1,11,0,4,1)
    PictureClear(5)
    EndEventProcessing()
    0()
   EndIf()
   0()
  EndLoop()
  0()
 PAGE   2
  // condition: party contains actor #326
  0()

EVENT   8
 PAGE   1
  // condition: switch 1327 is ON
  If(1,1083,0,1,0)
   RunCommonEvent(359)
   EndEventProcessing()
   0()
  EndIf()
  PictureDisplay(5,"80_ningyohime_st05",0,0,0,0,100,100,0,0)
  PictureMove(5,null,0,0,0,0,100,100,255,0,30,true)
  If(1,3327,0,500,1)
   If(1,4327,0,0,0)
    ChangeVariable(4327,4327,0,0,1)
    ShowMessageFace("ningyohime_fc1",3,0,2,1)
    ShowMessage("【エル】(Affection:\\V[3327])")
    ShowMessage("これ、砂浜で拾ったんだよ！")
    250(bytes(0x04,0x08,0x6f,0x3a,0x0c,0x52,0x50,0x47,0x3a,0x3a,0x53,0x45,0x08,0x3a,0x0a,0x40,0x6e,0x61,0x6d,0x65,0x49,0x22,0x0a,0x49,0x74,0x65,0x6d,0x31,0x06,0x3a,0x06,0x45,0x54,0x3a,0x0b,0x40,0x70,0x69,0x74,0x63,0x68,0x69,0x69,0x3a,0x0c,0x40,0x76,0x6f,0x6c,0x75,0x6d,0x65,0x69,0x55))
    ChangeInventoryArmor(1713,0,0,1,false)
    0()
   EndIf()
   0()
  EndIf()
  If(1,3327,0,2000,1)
   If(1,4327,0,1,0)
    ChangeVariable(4327,4327,0,0,2)
    ShowMessageFace("ningyohime_fc1",3,0,2,2)
    ShowMessage("【エル】(Affection:\\V[3327])")
    ShowMessage("これ、砂浜で拾ったんだよ！")
    250(bytes(0x04,0x08,0x6f,0x3a,0x0c,0x52,0x50,0x47,0x3a,0x3a,0x53,0x45,0x08,0x3a,0x0a,0x40,0x6e,0x61,0x6d,0x65,0x49,0x22,0x0a,0x49,0x74,0x65,0x6d,0x31,0x06,0x3a,0x06,0x45,0x54,0x3a,0x0b,0x40,0x70,0x69,0x74,0x63,0x68,0x69,0x69,0x3a,0x0c,0x40,0x76,0x6f,0x6c,0x75,0x6d,0x65,0x69,0x55))
    ChangeInventoryArmor(1028,0,0,1,false)
    0()
   EndIf()
   0()
  EndIf()
  If(1,3327,0,4000,1)
   If(1,4327,0,2,0)
    ChangeVariable(4327,4327,0,0,3)
    ShowMessageFace("ningyohime_fc1",3,0,2,3)
    ShowMessage("【エル】(Affection:\\V[3327])")
    ShowMessage("これ、砂浜で拾ったんだよ！")
    250(bytes(0x04,0x08,0x6f,0x3a,0x0c,0x52,0x50,0x47,0x3a,0x3a,0x53,0x45,0x08,0x3a,0x0a,0x40,0x6e,0x61,0x6d,0x65,0x49,0x22,0x0a,0x49,0x74,0x65,0x6d,0x31,0x06,0x3a,0x06,0x45,0x54,0x3a,0x0b,0x40,0x70,0x69,0x74,0x63,0x68,0x69,0x69,0x3a,0x0c,0x40,0x76,0x6f,0x6c,0x75,0x6d,0x65,0x69,0x55))
    ChangeInventoryArmor(1268,0,0,1,false)
    0()
   EndIf()
   0()
  EndIf()
  If(1,3327,0,6000,1)
   If(1,4327,0,3,0)
    ChangeVariable(4327,4327,0,0,4)
    ShowMessageFace("ningyohime_fc1",3,0,2,4)
    ShowMessage("【エル】(Affection:\\V[3327])")
    ShowMessage("これ、砂浜で拾ったんだよ！")
    250(bytes(0x04,0x08,0x6f,0x3a,0x0c,0x52,0x50,0x47,0x3a,0x3a,0x53,0x45,0x08,0x3a,0x0a,0x40,0x6e,0x61,0x6d,0x65,0x49,0x22,0x0a,0x49,0x74,0x65,0x6d,0x31,0x06,0x3a,0x06,0x45,0x54,0x3a,0x0b,0x40,0x70,0x69,0x74,0x63,0x68,0x69,0x69,0x3a,0x0c,0x40,0x76,0x6f,0x6c,0x75,0x6d,0x65,0x69,0x55))
    ChangeInventoryArmor(1527,0,0,1,false)
    0()
   EndIf()
   0()
  EndIf()
  355("actor_label_jump")
  ShowMessageFace("ningyohime_fc1",3,0,2,5)
  ShowMessage("【エル】(Affection:\\V[3327])")
  ShowMessage("ねぇねぇ、遊びにいこうよ～♪")
  ShowMessage("水のあるところがいいなぁ♪")
  JumpToLabel("メニュー")
  DefineLabel("118")
  ShowMessageFace("meia_fc1",2,0,2,6)
  ShowMessage("【メイア】(Affection:\\V[3118])")
  ShowMessage("あら、かわいい人魚姫様……♪")
  ShowMessageFace("ningyohime_fc1",3,0,2,7)
  ShowMessage("【エル】(Affection:\\V[3327])")
  ShowMessage("半人前扱いしないでよね。")
  ShowMessage("あたし、とっても強いんだから！")
  ShowMessageFace("meia_fc1",2,0,2,8)
  ShowMessage("【メイア】(Affection:\\V[3118])")
  ShowMessage("うふふっ、いい子ですね……")
  ShowMessage("はい、こんぶアメをあげましょう。")
  ShowMessageFace("ningyohime_fc1",5,0,2,9)
  ShowMessage("【エル】(Affection:\\V[3327])")
  ShowMessage("わ～い♪")
  JumpToLabel("メニュー")
  DefineLabel("325")
  ShowMessageFace("ningyohime_fc1",4,0,2,10)
  ShowMessage("【エル】(Affection:\\V[3327])")
  ShowMessage("遊びにいってくるね～♪")
  ShowMessageFace("g_marmaid_fc1",0,0,2,11)
  ShowMessage("【ジェシー】(Affection:\\V[3325])")
  ShowMessage("それでは、私が護衛しましょう……")
  ShowMessageFace("ningyohime_fc1",2,0,2,12)
  ShowMessage("【エル】(Affection:\\V[3327])")
  ShowMessage("も～！　来なくていいよ～！")
  ShowMessageFace("g_marmaid_fc1",0,0,2,13)
  ShowMessage("【ジェシー】(Affection:\\V[3325])")
  ShowMessage("私は親衛隊、女王陛下および姫の護衛が任務です。")
  ShowMessageFace("ningyohime_fc1",2,0,2,14)
  ShowMessage("【エル】(Affection:\\V[3327])")
  ShowMessage("む～！")
  JumpToLabel("メニュー")
  DefineLabel("328")
  ShowMessageFace("ningyohime_fc1",4,0,2,15)
  ShowMessage("【エル】(Affection:\\V[3327])")
  ShowMessage("おかあさ～ん♪")
  ShowMessageFace("queenmermaid_fc1",0,0,2,16)
  ShowMessage("【ローラ】(Affection:\\V[3328])")
  ShowMessage("エル……新しい友達はできたかしら？")
  ShowMessageFace("ningyohime_fc1",5,0,2,17)
  ShowMessage("【エル】(Affection:\\V[3327])")
  ShowMessage("うん♪　サワガニ娘のサワちゃんに、ズワイガニ娘のカヌちゃん……")
  ShowMessage("それにタカアシガニ娘のナミちゃんとイナちゃんも♪")
  ShowMessageFace("queenmermaid_fc1",0,0,2,18)
  ShowMessage("【ローラ】(Affection:\\V[3328])")
  ShowMessage("……カニばかりね……")
  JumpToLabel("メニュー")
  DefineLabel("メニュー")
  StartLoop()
   355("unlimited_choices(11, [\"Give presents\",")
   655("\"Add to party\",")
   655("\"View present list\",\"Request\",")
   655("\"Never mind\"])")
   If(1,11,0,0,0)
    355("present_start(327)")
    0()
   EndIf()
   If(1,11,0,1,0)
    PictureClear(5)
    355("move_actor_ex(327)")
    EndEventProcessing()
    0()
   EndIf()
   If(1,11,0,2,0)
    ShowMessageFace("",0,0,2,19)
    ShowMessage("Affection       500:\\ia[1713]")
    ShowMessage("Affection     2000:\\ia[1028]")
    ShowMessage("Affection     4000:\\ia[1268]")
    ShowMessage("Affection     6000:\\ia[1527]")
    0()
   EndIf()
   If(1,11,0,3,0)
    PictureClear(5)
    ShowMessageFace("",0,0,2,20)
    ShowMessage("Ask her for what? (Affection:\\V[3327])")
    ShowChoices(strings("Reverse Rape(Affection:10)","Never mind"),2)
    IfPlayerPicksChoice(0,null)
     If(1,3327,0,10,1)
      355("call_novel_scene(5451)")
      EndEventProcessing()
      0()
     Else()
      ShowMessageFace("ningyohime_fc1",6,0,2,21)
      ShowMessage("【エル】(Affection:\\V[3327])")
      ShowMessage("もう少し、遊んでからね……")
      0()
     EndIf()
     0()
    IfPlayerPicksChoice(1,null)
     0()
    404()
    0()
   EndIf()
   If(1,11,0,4,1)
    PictureClear(5)
    EndEventProcessing()
    0()
   EndIf()
   0()
  EndLoop()
  0()
 PAGE   2
  // condition: party contains actor #327
  0()



EVENT   10
 PAGE   1
  // condition: switch 1325 is ON
  PictureDisplay(5,"80_g_mermaid_st01",0,0,0,0,100,100,0,0)
  PictureMove(5,null,0,0,0,0,100,100,255,0,30,true)
  If(1,3325,0,500,1)
   If(1,4325,0,0,0)
    ChangeVariable(4325,4325,0,0,1)
    ShowMessageFace("g_marmaid_fc1",0,0,2,1)
    ShowMessage("【ジェシー】(Affection:\\V[3325])")
    ShowMessage("はい、これを使いなさい。")
    250(bytes(0x04,0x08,0x6f,0x3a,0x0c,0x52,0x50,0x47,0x3a,0x3a,0x53,0x45,0x08,0x3a,0x0a,0x40,0x6e,0x61,0x6d,0x65,0x49,0x22,0x0a,0x49,0x74,0x65,0x6d,0x31,0x06,0x3a,0x06,0x45,0x54,0x3a,0x0b,0x40,0x70,0x69,0x74,0x63,0x68,0x69,0x69,0x3a,0x0c,0x40,0x76,0x6f,0x6c,0x75,0x6d,0x65,0x69,0x55))
    ChangeInventoryArmor(1267,0,0,1,false)
    0()
   EndIf()
   0()
  EndIf()
  If(1,3325,0,2000,1)
   If(1,4325,0,1,0)
    ChangeVariable(4325,4325,0,0,2)
    ShowMessageFace("g_marmaid_fc1",0,0,2,2)
    ShowMessage("【ジェシー】(Affection:\\V[3325])")
    ShowMessage("はい、これを使いなさい。")
    250(bytes(0x04,0x08,0x6f,0x3a,0x0c,0x52,0x50,0x47,0x3a,0x3a,0x53,0x45,0x08,0x3a,0x0a,0x40,0x6e,0x61,0x6d,0x65,0x49,0x22,0x0a,0x49,0x74,0x65,0x6d,0x31,0x06,0x3a,0x06,0x45,0x54,0x3a,0x0b,0x40,0x70,0x69,0x74,0x63,0x68,0x69,0x69,0x3a,0x0c,0x40,0x76,0x6f,0x6c,0x75,0x6d,0x65,0x69,0x55))
    ChangeInventoryArmor(1207,0,0,1,false)
    0()
   EndIf()
   0()
  EndIf()
  If(1,3325,0,4000,1)
   If(1,4325,0,2,0)
    ChangeVariable(4325,4325,0,0,3)
    ShowMessageFace("g_marmaid_fc1",0,0,2,3)
    ShowMessage("【ジェシー】(Affection:\\V[3325])")
    ShowMessage("はい、これを使いなさい。")
    250(bytes(0x04,0x08,0x6f,0x3a,0x0c,0x52,0x50,0x47,0x3a,0x3a,0x53,0x45,0x08,0x3a,0x0a,0x40,0x6e,0x61,0x6d,0x65,0x49,0x22,0x0a,0x49,0x74,0x65,0x6d,0x31,0x06,0x3a,0x06,0x45,0x54,0x3a,0x0b,0x40,0x70,0x69,0x74,0x63,0x68,0x69,0x69,0x3a,0x0c,0x40,0x76,0x6f,0x6c,0x75,0x6d,0x65,0x69,0x55))
    ChangeInventoryArmor(1598,0,0,1,false)
    0()
   EndIf()
   0()
  EndIf()
  If(1,3325,0,6000,1)
   If(1,4325,0,3,0)
    ChangeVariable(4325,4325,0,0,4)
    ShowMessageFace("g_marmaid_fc1",0,0,2,4)
    ShowMessage("【ジェシー】(Affection:\\V[3325])")
    ShowMessage("はい、これを使いなさい。")
    250(bytes(0x04,0x08,0x6f,0x3a,0x0c,0x52,0x50,0x47,0x3a,0x3a,0x53,0x45,0x08,0x3a,0x0a,0x40,0x6e,0x61,0x6d,0x65,0x49,0x22,0x0a,0x49,0x74,0x65,0x6d,0x31,0x06,0x3a,0x06,0x45,0x54,0x3a,0x0b,0x40,0x70,0x69,0x74,0x63,0x68,0x69,0x69,0x3a,0x0c,0x40,0x76,0x6f,0x6c,0x75,0x6d,0x65,0x69,0x55))
    ChangeInventoryArmor(1632,0,0,1,false)
    0()
   EndIf()
   0()
  EndIf()
  355("actor_label_jump")
  ShowMessageFace("g_marmaid_fc1",0,0,2,5)
  ShowMessage("【ジェシー】(Affection:\\V[3325])")
  ShowMessage("私は、女王様の近衛兵。")
  ShowMessage("人魚の中でも、トップクラスの戦士なのよ。")
  JumpToLabel("メニュー")
  DefineLabel("324")
  ShowMessageFace("g_marmaid_fc1",0,0,2,6)
  ShowMessage("【ジェシー】(Affection:\\V[3325])")
  ShowMessage("メリル、腕は磨いているかしら……？")
  ShowMessageFace("knight_mermaid_fc1",1,0,2,7)
  ShowMessage("【メリル】(Affection:\\V[3324])")
  ShowMessage("はい、女王陛下の親衛隊に入るのが目標ですから！")
  ShowMessageFace("g_marmaid_fc1",0,0,2,8)
  ShowMessage("【ジェシー】(Affection:\\V[3325])")
  ShowMessage("うふふっ、がんばってね……")
  ShowMessage("あなたが親衛隊に入れば、私も楽ができそう。")
  ShowMessageFace("knight_mermaid_fc1",1,0,2,9)
  ShowMessage("【メリル】(Affection:\\V[3324])")
  ShowMessage("そのためにも、ますます技を磨きましょう！")
  JumpToLabel("メニュー")
  DefineLabel("327")
  ShowMessageFace("ningyohime_fc1",4,0,2,10)
  ShowMessage("【エル】(Affection:\\V[3327])")
  ShowMessage("遊びにいってくるね～♪")
  ShowMessageFace("g_marmaid_fc1",0,0,2,11)
  ShowMessage("【ジェシー】(Affection:\\V[3325])")
  ShowMessage("それでは、私が護衛しましょう……")
  ShowMessageFace("ningyohime_fc1",2,0,2,12)
  ShowMessage("【エル】(Affection:\\V[3327])")
  ShowMessage("も～！　来なくていいよ～！")
  ShowMessageFace("g_marmaid_fc1",0,0,2,13)
  ShowMessage("【ジェシー】(Affection:\\V[3325])")
  ShowMessage("私は親衛隊、女王陛下および姫の護衛が任務です。")
  ShowMessageFace("ningyohime_fc1",2,0,2,14)
  ShowMessage("【エル】(Affection:\\V[3327])")
  ShowMessage("む～！")
  JumpToLabel("メニュー")
  DefineLabel("328")
  ShowMessageFace("g_marmaid_fc1",0,0,2,15)
  ShowMessage("【ジェシー】(Affection:\\V[3325])")
  ShowMessage("陛下の身、私がお守りしましょう！")
  ShowMessageFace("queenmermaid_fc1",0,0,2,16)
  ShowMessage("【ローラ】(Affection:\\V[3328])")
  ShowMessage("こんな所でまで、私を守る必要はないわ……")
  ShowMessage("今の私達は、世界のために戦っているのよ。")
  ShowMessageFace("g_marmaid_fc1",0,0,2,17)
  ShowMessage("【ジェシー】(Affection:\\V[3325])")
  ShowMessage("ならば、世界のために戦いながら陛下をお守りしましょう！")
  ShowMessageFace("queenmermaid_fc1",0,0,2,18)
  ShowMessage("【ローラ】(Affection:\\V[3328])")
  ShowMessage("まったく、融通が利かないわね……")
  JumpToLabel("メニュー")
  DefineLabel("メニュー")
  StartLoop()
   355("unlimited_choices(11, [\"Give presents\",")
   655("\"Add to party\",")
   655("\"View present list\",\"Request\",")
   655("\"Never mind\"])")
   If(1,11,0,0,0)
    355("present_start(325)")
    0()
   EndIf()
   If(1,11,0,1,0)
    PictureClear(5)
    355("move_actor_ex(325)")
    EndEventProcessing()
    0()
   EndIf()
   If(1,11,0,2,0)
    ShowMessageFace("",0,0,2,19)
    ShowMessage("Affection       500:\\ia[1267]")
    ShowMessage("Affection     2000:\\ia[1207]")
    ShowMessage("Affection     4000:\\ia[1598]")
    ShowMessage("Affection     6000:\\ia[1632]")
    0()
   EndIf()
   If(1,11,0,3,0)
    PictureClear(5)
    ShowMessageFace("",0,0,2,20)
    ShowMessage("Ask her for what? (Affection:\\V[3325])")
    ShowChoices(strings("General's Paizuri(Affection:10)","General's Rape(Affection:100)","Never mind"),3)
    IfPlayerPicksChoice(0,null)
     If(1,3325,0,10,1)
      355("call_novel_scene(5441)")
      EndEventProcessing()
      0()
     Else()
      ShowMessageFace("g_marmaid_fc1",1,0,2,21)
      ShowMessage("【ジェシー】(Affection:\\V[3325])")
      ShowMessage("もう少し、馴染んでからね……")
      0()
     EndIf()
     0()
    IfPlayerPicksChoice(1,null)
     If(1,3325,0,100,1)
      355("call_novel_scene(5442)")
      EndEventProcessing()
      0()
     Else()
      ShowMessageFace("g_marmaid_fc1",1,0,2,22)
      ShowMessage("【ジェシー】(Affection:\\V[3325])")
      ShowMessage("もう少し、馴染んでからね……")
      0()
     EndIf()
     0()
    IfPlayerPicksChoice(2,null)
     0()
    404()
    0()
   EndIf()
   If(1,11,0,4,1)
    PictureClear(5)
    EndEventProcessing()
    0()
   EndIf()
   0()
  EndLoop()
  0()
 PAGE   2
  // condition: party contains actor #325
  0()



EVENT   11
 PAGE   1
  // condition: switch 1275 is ON
  PictureDisplay(5,"80_beelzebub_st01",0,0,0,0,100,100,0,0)
  PictureMove(5,null,0,0,0,0,100,100,255,0,30,true)
  If(1,3275,0,100,1)
   If(1,4275,0,0,0)
    ChangeVariable(4275,4275,0,0,1)
    ShowMessageFace("beelzebub_fc1",0,0,2,1)
    ShowMessage("【バーバレラ】(Affection:\\V[3275])")
    ShowMessage("これをあげるわ……")
    250(bytes(0x04,0x08,0x6f,0x3a,0x0c,0x52,0x50,0x47,0x3a,0x3a,0x53,0x45,0x08,0x3a,0x0a,0x40,0x6e,0x61,0x6d,0x65,0x49,0x22,0x0a,0x49,0x74,0x65,0x6d,0x31,0x06,0x3a,0x06,0x45,0x54,0x3a,0x0b,0x40,0x70,0x69,0x74,0x63,0x68,0x69,0x69,0x3a,0x0c,0x40,0x76,0x6f,0x6c,0x75,0x6d,0x65,0x69,0x55))
    ChangeInventoryArmor(1011,0,0,1,false)
    0()
   EndIf()
   0()
  EndIf()
  If(1,3275,0,500,1)
   If(1,4275,0,1,0)
    ChangeVariable(4275,4275,0,0,2)
    ShowMessageFace("beelzebub_fc1",0,0,2,2)
    ShowMessage("【バーバレラ】(Affection:\\V[3275])")
    ShowMessage("これをあげるわ……")
    250(bytes(0x04,0x08,0x6f,0x3a,0x0c,0x52,0x50,0x47,0x3a,0x3a,0x53,0x45,0x08,0x3a,0x0a,0x40,0x6e,0x61,0x6d,0x65,0x49,0x22,0x0a,0x49,0x74,0x65,0x6d,0x31,0x06,0x3a,0x06,0x45,0x54,0x3a,0x0b,0x40,0x70,0x69,0x74,0x63,0x68,0x69,0x69,0x3a,0x0c,0x40,0x76,0x6f,0x6c,0x75,0x6d,0x65,0x69,0x55))
    ChangeInventoryArmor(1564,0,0,1,false)
    0()
   EndIf()
   0()
  EndIf()
  If(1,3275,0,2000,1)
   If(1,4275,0,2,0)
    ChangeVariable(4275,4275,0,0,3)
    ShowMessageFace("beelzebub_fc1",0,0,2,3)
    ShowMessage("【バーバレラ】(Affection:\\V[3275])")
    ShowMessage("これをあげるわ……")
    250(bytes(0x04,0x08,0x6f,0x3a,0x0c,0x52,0x50,0x47,0x3a,0x3a,0x53,0x45,0x08,0x3a,0x0a,0x40,0x6e,0x61,0x6d,0x65,0x49,0x22,0x0a,0x49,0x74,0x65,0x6d,0x31,0x06,0x3a,0x06,0x45,0x54,0x3a,0x0b,0x40,0x70,0x69,0x74,0x63,0x68,0x69,0x69,0x3a,0x0c,0x40,0x76,0x6f,0x6c,0x75,0x6d,0x65,0x69,0x55))
    ChangeInventoryArmor(1211,0,0,1,false)
    0()
   EndIf()
   0()
  EndIf()
  If(1,3275,0,4000,1)
   If(1,4275,0,3,0)
    ChangeVariable(4275,4275,0,0,4)
    ShowMessageFace("beelzebub_fc1",0,0,2,4)
    ShowMessage("【バーバレラ】(Affection:\\V[3275])")
    ShowMessage("これをあげるわ……")
    250(bytes(0x04,0x08,0x6f,0x3a,0x0c,0x52,0x50,0x47,0x3a,0x3a,0x53,0x45,0x08,0x3a,0x0a,0x40,0x6e,0x61,0x6d,0x65,0x49,0x22,0x0a,0x49,0x74,0x65,0x6d,0x31,0x06,0x3a,0x06,0x45,0x54,0x3a,0x0b,0x40,0x70,0x69,0x74,0x63,0x68,0x69,0x69,0x3a,0x0c,0x40,0x76,0x6f,0x6c,0x75,0x6d,0x65,0x69,0x55))
    ChangeInventoryArmor(1394,0,0,1,false)
    0()
   EndIf()
   0()
  EndIf()
  355("actor_label_jump")
  ShowMessageFace("beelzebub_fc1",0,0,2,5)
  ShowMessage("【バーバレラ】(Affection:\\V[3275])")
  ShowMessage("やっぱり、船にいる方が落ち着くわね……")
  JumpToLabel("メニュー")
  DefineLabel("244")
  ShowMessageFace("suzumebati_fc1",0,0,2,6)
  ShowMessage("【ビー】(Affection:\\V[3244])")
  ShowMessage("大キナ……ハエ！？")
  ShowMessageFace("beelzebub_fc1",0,0,2,7)
  ShowMessage("【バーバレラ】(Affection:\\V[3275])")
  ShowMessage("ハチの分際で偉そうね。")
  ShowMessage("私はベルゼバブ、蠅の王なのよ。")
  ShowMessageFace("suzumebati_fc1",0,0,2,8)
  ShowMessage("【ビー】(Affection:\\V[3244])")
  ShowMessage("甘イモノ、アル……？")
  ShowMessageFace("beelzebub_fc1",2,0,2,9)
  ShowMessage("【バーバレラ】(Affection:\\V[3275])")
  ShowMessage("動じないハチね……持ち合わせはないわ。")
  JumpToLabel("メニュー")
  DefineLabel("276")
  ShowMessageFace("beelzebub_fc1",2,0,2,10)
  ShowMessage("【バーバレラ】(Affection:\\V[3275])")
  ShowMessage("ストリガ……")
  ShowMessage("正直、あなたとはしゃべり飽きたわ。")
  ShowMessageFace("beelzebub_fc2",2,0,2,11)
  ShowMessage("【ストリガ】(Affection:\\V[3276])")
  ShowMessage("ええ、同感です……")
  ShowMessage("あの船の中で、ずっと一緒でしたからね。")
  ShowMessageFace("beelzebub_fc1",2,0,2,12)
  ShowMessage("【バーバレラ】(Affection:\\V[3275])")
  ShowMessage("正直、顔も見飽きたわ……")
  ShowMessageFace("beelzebub_fc2",2,0,2,13)
  ShowMessage("【ストリガ】(Affection:\\V[3276])")
  ShowMessage("お互い、倦怠期のカップルのようになっていますね……")
  JumpToLabel("メニュー")
  DefineLabel("277")
  ShowMessageFace("beelzebub_fc1",2,0,2,14)
  ShowMessage("【バーバレラ】(Affection:\\V[3275])")
  ShowMessage("メディア……あなたはマイペースで良いわね。")
  ShowMessageFace("beelzebub_fc3",0,0,2,15)
  ShowMessage("【メディア】(Affection:\\V[3277])")
  ShowMessage("この時代、楽しいじゃない……")
  ShowMessage("ダンゴは美味しいし。")
  ShowMessageFace("beelzebub_fc1",2,0,2,16)
  ShowMessage("【バーバレラ】(Affection:\\V[3275])")
  ShowMessage("あんたの頭の中にはダンゴしかないの！？")
  ShowMessageFace("beelzebub_fc3",0,0,2,17)
  ShowMessage("【メディア】(Affection:\\V[3277])")
  ShowMessage("うん。")
  JumpToLabel("メニュー")
  DefineLabel("メニュー")
  StartLoop()
   355("unlimited_choices(11, [\"Give presents\",")
   655("\"Add to party\",")
   655("\"View present list\",\"Request\",")
   655("\"Never mind\"])")
   If(1,11,0,0,0)
    355("present_start(275)")
    0()
   EndIf()
   If(1,11,0,1,0)
    PictureClear(5)
    355("move_actor_ex(275)")
    EndEventProcessing()
    0()
   EndIf()
   If(1,11,0,2,0)
    ShowMessageFace("",0,0,2,18)
    ShowMessage("Affection       100:\\ia[1011]")
    ShowMessage("Affection       500:\\ia[1564]")
    ShowMessage("Affection     2000:\\ia[1211]")
    ShowMessage("Affection     4000:\\ia[1394]")
    0()
   EndIf()
   If(1,11,0,3,0)
    PictureClear(5)
    ShowMessageFace("",0,0,2,19)
    ShowMessage("Ask her for what? (Affection:\\V[3275])")
    ShowChoices(strings("Monster Fly Embrace(Affection:10)","Reverse Rape(Affection:100)","Never mind"),3)
    IfPlayerPicksChoice(0,null)
     If(1,3275,0,10,1)
      355("call_novel_scene(5186)")
      EndEventProcessing()
      0()
     Else()
      ShowMessageFace("beelzebub_fc1",0,0,2,20)
      ShowMessage("【バーバレラ】(Affection:\\V[3275])")
      ShowMessage("そんな気分じゃないの……")
      0()
     EndIf()
     0()
    IfPlayerPicksChoice(1,null)
     If(1,3275,0,100,1)
      355("call_novel_scene(5187)")
      EndEventProcessing()
      0()
     Else()
      ShowMessageFace("beelzebub_fc1",0,0,2,21)
      ShowMessage("【バーバレラ】(Affection:\\V[3275])")
      ShowMessage("そんな気分じゃないの……")
      0()
     EndIf()
     0()
    IfPlayerPicksChoice(2,null)
     0()
    404()
    0()
   EndIf()
   If(1,11,0,4,1)
    PictureClear(5)
    EndEventProcessing()
    0()
   EndIf()
   0()
  EndLoop()
  0()
 PAGE   2
  // condition: party contains actor #275
  0()



EVENT   12
 PAGE   1
  // condition: switch 1276 is ON
  PictureDisplay(5,"80_beelzebub_st11",0,0,0,0,100,100,0,0)
  PictureMove(5,null,0,0,0,0,100,100,255,0,30,true)
  If(1,3276,0,100,1)
   If(1,4276,0,0,0)
    ChangeVariable(4276,4276,0,0,1)
    ShowMessageFace("beelzebub_fc2",0,0,2,1)
    ShowMessage("【ストリガ】(Affection:\\V[3276])")
    ShowMessage("うふふっ、差し上げましょう……")
    250(bytes(0x04,0x08,0x6f,0x3a,0x0c,0x52,0x50,0x47,0x3a,0x3a,0x53,0x45,0x08,0x3a,0x0a,0x40,0x6e,0x61,0x6d,0x65,0x49,0x22,0x0a,0x49,0x74,0x65,0x6d,0x31,0x06,0x3a,0x06,0x45,0x54,0x3a,0x0b,0x40,0x70,0x69,0x74,0x63,0x68,0x69,0x69,0x3a,0x0c,0x40,0x76,0x6f,0x6c,0x75,0x6d,0x65,0x69,0x55))
    ChangeInventoryArmor(1031,0,0,1,false)
    0()
   EndIf()
   0()
  EndIf()
  If(1,3276,0,500,1)
   If(1,4276,0,1,0)
    ChangeVariable(4276,4276,0,0,2)
    ShowMessageFace("beelzebub_fc2",0,0,2,2)
    ShowMessage("【ストリガ】(Affection:\\V[3276])")
    ShowMessage("うふふっ、差し上げましょう……")
    250(bytes(0x04,0x08,0x6f,0x3a,0x0c,0x52,0x50,0x47,0x3a,0x3a,0x53,0x45,0x08,0x3a,0x0a,0x40,0x6e,0x61,0x6d,0x65,0x49,0x22,0x0a,0x49,0x74,0x65,0x6d,0x31,0x06,0x3a,0x06,0x45,0x54,0x3a,0x0b,0x40,0x70,0x69,0x74,0x63,0x68,0x69,0x69,0x3a,0x0c,0x40,0x76,0x6f,0x6c,0x75,0x6d,0x65,0x69,0x55))
    ChangeInventoryArmor(1560,0,0,1,false)
    0()
   EndIf()
   0()
  EndIf()
  If(1,3276,0,2000,1)
   If(1,4276,0,2,0)
    ChangeVariable(4276,4276,0,0,3)
    ShowMessageFace("beelzebub_fc2",0,0,2,3)
    ShowMessage("【ストリガ】(Affection:\\V[3276])")
    ShowMessage("うふふっ、差し上げましょう……")
    250(bytes(0x04,0x08,0x6f,0x3a,0x0c,0x52,0x50,0x47,0x3a,0x3a,0x53,0x45,0x08,0x3a,0x0a,0x40,0x6e,0x61,0x6d,0x65,0x49,0x22,0x0a,0x49,0x74,0x65,0x6d,0x31,0x06,0x3a,0x06,0x45,0x54,0x3a,0x0b,0x40,0x70,0x69,0x74,0x63,0x68,0x69,0x69,0x3a,0x0c,0x40,0x76,0x6f,0x6c,0x75,0x6d,0x65,0x69,0x55))
    ChangeInventoryArmor(1440,0,0,1,false)
    0()
   EndIf()
   0()
  EndIf()
  If(1,3276,0,4000,1)
   If(1,4276,0,3,0)
    ChangeVariable(4276,4276,0,0,4)
    ShowMessageFace("beelzebub_fc2",0,0,2,4)
    ShowMessage("【ストリガ】(Affection:\\V[3276])")
    ShowMessage("うふふっ、差し上げましょう……")
    250(bytes(0x04,0x08,0x6f,0x3a,0x0c,0x52,0x50,0x47,0x3a,0x3a,0x53,0x45,0x08,0x3a,0x0a,0x40,0x6e,0x61,0x6d,0x65,0x49,0x22,0x0a,0x49,0x74,0x65,0x6d,0x31,0x06,0x3a,0x06,0x45,0x54,0x3a,0x0b,0x40,0x70,0x69,0x74,0x63,0x68,0x69,0x69,0x3a,0x0c,0x40,0x76,0x6f,0x6c,0x75,0x6d,0x65,0x69,0x55))
    ChangeInventoryArmor(1494,0,0,1,false)
    0()
   EndIf()
   0()
  EndIf()
  355("actor_label_jump")
  ShowMessageFace("beelzebub_fc2",0,0,2,5)
  ShowMessage("【ストリガ】(Affection:\\V[3276])")
  ShowMessage("たくさん子供を作りたいですね……")
  ShowMessage("うふふっ、お相手して下さいます？")
  JumpToLabel("メニュー")
  DefineLabel("251")
  ShowMessageFace("paizuridoll_fc1",0,0,2,6)
  ShowMessage("【パイン】(Affection:\\V[3251])")
  ShowMessage("……………………")
  ShowMessageFace("beelzebub_fc2",2,0,2,7)
  ShowMessage("【ストリガ】(Affection:\\V[3276])")
  ShowMessage("奇妙なからくり人形がいるわ……")
  ShowMessage("つくづく、変な時代ね……")
  ShowMessageFace("paizuridoll_fc1",1,0,2,8)
  ShowMessage("【パイン】(Affection:\\V[3251])")
  ShowMessage("…………♪♪♪")
  ShowMessageFace("beelzebub_fc2",2,0,2,9)
  ShowMessage("【ストリガ】(Affection:\\V[3276])")
  ShowMessage("胸を突き出して迫ってきた！")
  ShowMessage("イヤァァァァ！！")
  JumpToLabel("メニュー")
  DefineLabel("275")
  ShowMessageFace("beelzebub_fc1",2,0,2,10)
  ShowMessage("【バーバレラ】(Affection:\\V[3275])")
  ShowMessage("ストリガ……")
  ShowMessage("正直、あなたとはしゃべり飽きたわ。")
  ShowMessageFace("beelzebub_fc2",2,0,2,11)
  ShowMessage("【ストリガ】(Affection:\\V[3276])")
  ShowMessage("ええ、同感です……")
  ShowMessage("あの船の中で、ずっと一緒でしたからね。")
  ShowMessageFace("beelzebub_fc1",2,0,2,12)
  ShowMessage("【バーバレラ】(Affection:\\V[3275])")
  ShowMessage("正直、顔も見飽きたわ……")
  ShowMessageFace("beelzebub_fc2",2,0,2,13)
  ShowMessage("【ストリガ】(Affection:\\V[3276])")
  ShowMessage("お互い、倦怠期のカップルのようになっていますね……")
  JumpToLabel("メニュー")
  DefineLabel("277")
  ShowMessageFace("beelzebub_fc3",1,0,2,14)
  ShowMessage("【メディア】(Affection:\\V[3277])")
  ShowMessage("ダンゴ、おいしい……")
  ShowMessageFace("beelzebub_fc2",2,0,2,15)
  ShowMessage("【ストリガ】(Affection:\\V[3276])")
  ShowMessage("あなたは、相変わらずですね……")
  ShowMessage("違う時代での戸惑いなど、ないのですか？")
  ShowMessageFace("beelzebub_fc3",1,0,2,16)
  ShowMessage("【メディア】(Affection:\\V[3277])")
  ShowMessage("ダンゴがあれば、私の時代……")
  ShowMessageFace("beelzebub_fc2",2,0,2,17)
  ShowMessage("【ストリガ】(Affection:\\V[3276])")
  ShowMessage("単純で羨ましいですね……")
  JumpToLabel("メニュー")
  DefineLabel("メニュー")
  StartLoop()
   355("unlimited_choices(11, [\"Give presents\",")
   655("\"Add to party\",")
   655("\"View present list\",\"Request\",")
   655("\"Never mind\"])")
   If(1,11,0,0,0)
    355("present_start(276)")
    0()
   EndIf()
   If(1,11,0,1,0)
    PictureClear(5)
    355("move_actor_ex(276)")
    EndEventProcessing()
    0()
   EndIf()
   If(1,11,0,2,0)
    ShowMessageFace("",0,0,2,18)
    ShowMessage("Affection       100:\\ia[1031]")
    ShowMessage("Affection       500:\\ia[1560]")
    ShowMessage("Affection     2000:\\ia[1440]")
    ShowMessage("Affection     4000:\\ia[1494]")
    0()
   EndIf()
   If(1,11,0,3,0)
    PictureClear(5)
    ShowMessageFace("",0,0,2,19)
    ShowMessage("Ask her for what? (Affection:\\V[3276])")
    ShowChoices(strings("Monster Fly Embrace(Affection:10)","Serial Milking(Affection:100)","Never mind"),3)
    IfPlayerPicksChoice(0,null)
     If(1,3276,0,10,1)
      355("call_novel_scene(5191)")
      EndEventProcessing()
      0()
     Else()
      ShowMessageFace("beelzebub_fc2",0,0,2,20)
      ShowMessage("【ストリガ】(Affection:\\V[3276])")
      ShowMessage("また今度にしましょう……")
      0()
     EndIf()
     0()
    IfPlayerPicksChoice(1,null)
     If(1,3276,0,100,1)
      355("call_novel_scene(5192)")
      EndEventProcessing()
      0()
     Else()
      ShowMessageFace("beelzebub_fc2",0,0,2,21)
      ShowMessage("【ストリガ】（好感度：\\V[3276]）")
      ShowMessage("また今度にしましょう……")
      0()
     EndIf()
     0()
    IfPlayerPicksChoice(2,null)
     0()
    404()
    0()
   EndIf()
   If(1,11,0,4,1)
    PictureClear(5)
    EndEventProcessing()
    0()
   EndIf()
   0()
  EndLoop()
  0()
 PAGE   2
  // condition: party contains actor #276
  0()



EVENT   13
 PAGE   1
  // condition: switch 1277 is ON
  PictureDisplay(5,"80_beelzebub_st21",0,0,0,0,100,100,0,0)
  PictureMove(5,null,0,0,0,0,100,100,255,0,30,true)
  If(1,3277,0,100,1)
   If(1,4277,0,0,0)
    ChangeVariable(4277,4277,0,0,1)
    ShowMessageFace("beelzebub_fc3",0,0,2,1)
    ShowMessage("【メディア】(Affection:\\V[3277])")
    ShowMessage("これ、欲しい……？")
    250(bytes(0x04,0x08,0x6f,0x3a,0x0c,0x52,0x50,0x47,0x3a,0x3a,0x53,0x45,0x08,0x3a,0x0a,0x40,0x6e,0x61,0x6d,0x65,0x49,0x22,0x0a,0x49,0x74,0x65,0x6d,0x31,0x06,0x3a,0x06,0x45,0x54,0x3a,0x0b,0x40,0x70,0x69,0x74,0x63,0x68,0x69,0x69,0x3a,0x0c,0x40,0x76,0x6f,0x6c,0x75,0x6d,0x65,0x69,0x55))
    ChangeInventoryArmor(1006,0,0,1,false)
    0()
   EndIf()
   0()
  EndIf()
  If(1,3277,0,500,1)
   If(1,4277,0,1,0)
    ChangeVariable(4277,4277,0,0,2)
    ShowMessageFace("beelzebub_fc3",0,0,2,2)
    ShowMessage("【メディア】(Affection:\\V[3277])")
    ShowMessage("これ、欲しい……？")
    250(bytes(0x04,0x08,0x6f,0x3a,0x0c,0x52,0x50,0x47,0x3a,0x3a,0x53,0x45,0x08,0x3a,0x0a,0x40,0x6e,0x61,0x6d,0x65,0x49,0x22,0x0a,0x49,0x74,0x65,0x6d,0x31,0x06,0x3a,0x06,0x45,0x54,0x3a,0x0b,0x40,0x70,0x69,0x74,0x63,0x68,0x69,0x69,0x3a,0x0c,0x40,0x76,0x6f,0x6c,0x75,0x6d,0x65,0x69,0x55))
    ChangeInventoryArmor(1562,0,0,1,false)
    0()
   EndIf()
   0()
  EndIf()
  If(1,3277,0,2000,1)
   If(1,4277,0,2,0)
    ChangeVariable(4277,4277,0,0,3)
    ShowMessageFace("beelzebub_fc3",0,0,2,3)
    ShowMessage("【メディア】(Affection:\\V[3277])")
    ShowMessage("これ、欲しい……？")
    250(bytes(0x04,0x08,0x6f,0x3a,0x0c,0x52,0x50,0x47,0x3a,0x3a,0x53,0x45,0x08,0x3a,0x0a,0x40,0x6e,0x61,0x6d,0x65,0x49,0x22,0x0a,0x49,0x74,0x65,0x6d,0x31,0x06,0x3a,0x06,0x45,0x54,0x3a,0x0b,0x40,0x70,0x69,0x74,0x63,0x68,0x69,0x69,0x3a,0x0c,0x40,0x76,0x6f,0x6c,0x75,0x6d,0x65,0x69,0x55))
    ChangeInventoryArmor(1425,0,0,1,false)
    0()
   EndIf()
   0()
  EndIf()
  If(1,3277,0,4000,1)
   If(1,4277,0,3,0)
    ChangeVariable(4277,4277,0,0,4)
    ShowMessageFace("beelzebub_fc3",0,0,2,4)
    ShowMessage("【メディア】(Affection:\\V[3277])")
    ShowMessage("これ、欲しい……？")
    250(bytes(0x04,0x08,0x6f,0x3a,0x0c,0x52,0x50,0x47,0x3a,0x3a,0x53,0x45,0x08,0x3a,0x0a,0x40,0x6e,0x61,0x6d,0x65,0x49,0x22,0x0a,0x49,0x74,0x65,0x6d,0x31,0x06,0x3a,0x06,0x45,0x54,0x3a,0x0b,0x40,0x70,0x69,0x74,0x63,0x68,0x69,0x69,0x3a,0x0c,0x40,0x76,0x6f,0x6c,0x75,0x6d,0x65,0x69,0x55))
    ChangeInventoryArmor(1498,0,0,1,false)
    0()
   EndIf()
   0()
  EndIf()
  355("actor_label_jump")
  ShowMessageFace("beelzebub_fc3",0,0,2,5)
  ShowMessage("【メディア】(Affection:\\V[3277])")
  ShowMessage("子供、欲しい……")
  ShowMessage("精子をもらえる？")
  JumpToLabel("メニュー")
  DefineLabel("275")
  ShowMessageFace("beelzebub_fc1",2,0,2,6)
  ShowMessage("【バーバレラ】(Affection:\\V[3275])")
  ShowMessage("メディア……あなたはマイペースで良いわね。")
  ShowMessageFace("beelzebub_fc3",0,0,2,7)
  ShowMessage("【メディア】(Affection:\\V[3277])")
  ShowMessage("この時代、楽しいじゃない……")
  ShowMessage("ダンゴは美味しいし。")
  ShowMessageFace("beelzebub_fc1",2,0,2,8)
  ShowMessage("【バーバレラ】(Affection:\\V[3275])")
  ShowMessage("あんたの頭の中にはダンゴしかないの！？")
  ShowMessageFace("beelzebub_fc3",0,0,2,9)
  ShowMessage("【メディア】(Affection:\\V[3277])")
  ShowMessage("うん。")
  JumpToLabel("メニュー")
  DefineLabel("276")
  ShowMessageFace("beelzebub_fc3",1,0,2,10)
  ShowMessage("【メディア】(Affection:\\V[3277])")
  ShowMessage("ダンゴ、おいしい……")
  ShowMessageFace("beelzebub_fc2",2,0,2,11)
  ShowMessage("【ストリガ】(Affection:\\V[3276])")
  ShowMessage("あなたは、相変わらずですね……")
  ShowMessage("違う時代での戸惑いなど、ないのですか？")
  ShowMessageFace("beelzebub_fc3",1,0,2,12)
  ShowMessage("【メディア】(Affection:\\V[3277])")
  ShowMessage("ダンゴがあれば、私の時代……")
  ShowMessageFace("beelzebub_fc2",2,0,2,13)
  ShowMessage("【ストリガ】(Affection:\\V[3276])")
  ShowMessage("単純で羨ましいですね……")
  JumpToLabel("メニュー")
  DefineLabel("278")
  ShowMessageFace("beelzebub_fc3",0,0,2,14)
  ShowMessage("【メディア】(Affection:\\V[3277])")
  ShowMessage("くらげだ……")
  ShowMessageFace("arkjelly_fc1",0,0,2,15)
  ShowMessage("【サマンサ】(Affection:\\V[3278])")
  ShowMessage("…………？？？")
  ShowMessageFace("beelzebub_fc3",1,0,2,16)
  ShowMessage("【メディア】(Affection:\\V[3277])")
  ShowMessage("夏の風情、っていうのかしら……")
  ShowMessageFace("arkjelly_fc1",0,0,2,17)
  ShowMessage("【サマンサ】(Affection:\\V[3278])")
  ShowMessage("いわないよ……")
  ShowMessageFace("beelzebub_fc3",2,0,2,18)
  ShowMessage("【メディア】(Affection:\\V[3277])")
  ShowMessage("くらげに突っ込まれた……")
  ShowMessageFace("arkjelly_fc1",1,0,2,19)
  ShowMessage("【サマンサ】(Affection:\\V[3278])")
  ShowMessage("むふっ。")
  JumpToLabel("メニュー")
  DefineLabel("メニュー")
  StartLoop()
   355("unlimited_choices(11, [\"Give presents\",")
   655("\"Add to party\",")
   655("\"View present list\",\"Request\",")
   655("\"Never mind\"])")
   If(1,11,0,0,0)
    355("present_start(277)")
    0()
   EndIf()
   If(1,11,0,1,0)
    PictureClear(5)
    355("move_actor_ex(277)")
    EndEventProcessing()
    0()
   EndIf()
   If(1,11,0,2,0)
    ShowMessageFace("",0,0,2,20)
    ShowMessage("Affection       100:\\ia[1006]")
    ShowMessage("Affection       500:\\ia[1562]")
    ShowMessage("Affection     2000:\\ia[1425]")
    ShowMessage("Affection     4000:\\ia[1498]")
    0()
   EndIf()
   If(1,11,0,3,0)
    PictureClear(5)
    ShowMessageFace("",0,0,2,21)
    ShowMessage("Ask her for what? (Affection:\\V[3277])")
    ShowChoices(strings("Monster Fly Embrace 1(Affection:10)","Monster Fly Embrace 2(Affection:100)","Never mind"),3)
    IfPlayerPicksChoice(0,null)
     If(1,3277,0,10,1)
      355("call_novel_scene(5196)")
      EndEventProcessing()
      0()
     Else()
      ShowMessageFace("beelzebub_fc3",2,0,2,22)
      ShowMessage("【メディア】(Affection:\\V[3277])")
      ShowMessage("触れないで……")
      0()
     EndIf()
     0()
    IfPlayerPicksChoice(1,null)
     If(1,3277,0,100,1)
      355("call_novel_scene(5197)")
      EndEventProcessing()
      0()
     Else()
      ShowMessageFace("beelzebub_fc3",2,0,2,23)
      ShowMessage("【メディア】（好感度：\\V[3277]）")
      ShowMessage("触れないで……")
      0()
     EndIf()
     0()
    IfPlayerPicksChoice(2,null)
     0()
    404()
    0()
   EndIf()
   If(1,11,0,4,1)
    PictureClear(5)
    EndEventProcessing()
    0()
   EndIf()
   0()
  EndLoop()
  0()
 PAGE   2
  // condition: party contains actor #277
  0()



EVENT   14
 PAGE   1
  // condition: switch 1324 is ON
  PictureDisplay(5,"80_knight_mermaid_st01",0,0,0,0,100,100,0,0)
  PictureMove(5,null,0,0,0,0,100,100,255,0,30,true)
  If(1,3324,0,500,1)
   If(1,4324,0,0,0)
    ChangeVariable(4324,4324,0,0,1)
    ShowMessageFace("knight_mermaid_fc1",0,0,2,1)
    ShowMessage("【メリル】(Affection:\\V[3324])")
    ShowMessage("これを受け取ってくれる？")
    250(bytes(0x04,0x08,0x6f,0x3a,0x0c,0x52,0x50,0x47,0x3a,0x3a,0x53,0x45,0x08,0x3a,0x0a,0x40,0x6e,0x61,0x6d,0x65,0x49,0x22,0x0a,0x49,0x74,0x65,0x6d,0x31,0x06,0x3a,0x06,0x45,0x54,0x3a,0x0b,0x40,0x70,0x69,0x74,0x63,0x68,0x69,0x69,0x3a,0x0c,0x40,0x76,0x6f,0x6c,0x75,0x6d,0x65,0x69,0x55))
    ChangeInventoryArmor(1291,0,0,1,false)
    0()
   EndIf()
   0()
  EndIf()
  If(1,3324,0,2000,1)
   If(1,4324,0,1,0)
    ChangeVariable(4324,4324,0,0,2)
    ShowMessageFace("knight_mermaid_fc1",0,0,2,2)
    ShowMessage("【メリル】(Affection:\\V[3324])")
    ShowMessage("これを受け取ってくれる？")
    250(bytes(0x04,0x08,0x6f,0x3a,0x0c,0x52,0x50,0x47,0x3a,0x3a,0x53,0x45,0x08,0x3a,0x0a,0x40,0x6e,0x61,0x6d,0x65,0x49,0x22,0x0a,0x49,0x74,0x65,0x6d,0x31,0x06,0x3a,0x06,0x45,0x54,0x3a,0x0b,0x40,0x70,0x69,0x74,0x63,0x68,0x69,0x69,0x3a,0x0c,0x40,0x76,0x6f,0x6c,0x75,0x6d,0x65,0x69,0x55))
    ChangeInventoryArmor(1018,0,0,1,false)
    0()
   EndIf()
   0()
  EndIf()
  If(1,3324,0,4000,1)
   If(1,4324,0,2,0)
    ChangeVariable(4324,4324,0,0,3)
    ShowMessageFace("knight_mermaid_fc1",0,0,2,3)
    ShowMessage("【メリル】(Affection:\\V[3324])")
    ShowMessage("これを受け取ってくれる？")
    250(bytes(0x04,0x08,0x6f,0x3a,0x0c,0x52,0x50,0x47,0x3a,0x3a,0x53,0x45,0x08,0x3a,0x0a,0x40,0x6e,0x61,0x6d,0x65,0x49,0x22,0x0a,0x49,0x74,0x65,0x6d,0x31,0x06,0x3a,0x06,0x45,0x54,0x3a,0x0b,0x40,0x70,0x69,0x74,0x63,0x68,0x69,0x69,0x3a,0x0c,0x40,0x76,0x6f,0x6c,0x75,0x6d,0x65,0x69,0x55))
    ChangeInventoryArmor(1292,0,0,1,false)
    0()
   EndIf()
   0()
  EndIf()
  If(1,3324,0,6000,1)
   If(1,4324,0,3,0)
    ChangeVariable(4324,4324,0,0,4)
    ShowMessageFace("knight_mermaid_fc1",0,0,2,4)
    ShowMessage("【メリル】(Affection:\\V[3324])")
    ShowMessage("これを受け取ってくれる？")
    250(bytes(0x04,0x08,0x6f,0x3a,0x0c,0x52,0x50,0x47,0x3a,0x3a,0x53,0x45,0x08,0x3a,0x0a,0x40,0x6e,0x61,0x6d,0x65,0x49,0x22,0x0a,0x49,0x74,0x65,0x6d,0x31,0x06,0x3a,0x06,0x45,0x54,0x3a,0x0b,0x40,0x70,0x69,0x74,0x63,0x68,0x69,0x69,0x3a,0x0c,0x40,0x76,0x6f,0x6c,0x75,0x6d,0x65,0x69,0x55))
    ChangeInventoryArmor(1633,0,0,1,false)
    0()
   EndIf()
   0()
  EndIf()
  355("actor_label_jump")
  ShowMessageFace("knight_mermaid_fc1",0,0,2,5)
  ShowMessage("【メリル】(Affection:\\V[3324])")
  ShowMessage("人魚だからって、武芸に乏しいとは思わないで……")
  ShowMessage("戦士タイプの人魚もいるのよ。")
  JumpToLabel("メニュー")
  DefineLabel("195")
  ShowMessageFace("mermaid_fc1",3,0,2,6)
  ShowMessage("【メーヌ】(Affection:\\V[3195])")
  ShowMessage("あなたは剣ばかりで、堅物ですよね……")
  ShowMessage("たまには恋でもした方が良いですよ？")
  ShowMessageFace("knight_mermaid_fc1",0,0,2,7)
  ShowMessage("【メリル】(Affection:\\V[3324])")
  ShowMessage("恋など、戦士に必要ない……！")
  ShowMessageFace("mermaid_fc1",3,0,2,8)
  ShowMessage("【メーヌ】(Affection:\\V[3195])")
  ShowMessage("そんなんじゃ、いざという時に困りますよ……")
  ShowMessageFace("knight_mermaid_fc1",2,0,2,9)
  ShowMessage("【メリル】(Affection:\\V[3324])")
  ShowMessage("こ、困らない……！")
  JumpToLabel("メニュー")
  DefineLabel("260")
  ShowMessageFace("k_hapy_fc1",0,0,2,10)
  ShowMessage("【クリス】(Affection:\\V[3260])")
  ShowMessage("お互い、同胞の中では珍しい戦士タイプのようだな。")
  ShowMessageFace("knight_mermaid_fc1",0,0,2,11)
  ShowMessage("【メリル】(Affection:\\V[3324])")
  ShowMessage("人魚仲間は多くが魔法使いだから……")
  ShowMessage("ずいぶん珍しがられるわね。")
  ShowMessageFace("k_hapy_fc1",0,0,2,12)
  ShowMessage("【クリス】(Affection:\\V[3260])")
  ShowMessage("お互い、精進しようではないか。")
  ShowMessage("たまには互いに剣を交えるのも良いものだ。")
  ShowMessageFace("knight_mermaid_fc1",1,0,2,13)
  ShowMessage("【メリル】(Affection:\\V[3324])")
  ShowMessage("ええ、付き合わせてもらうわ……")
  ShowMessage("一緒に技を磨きましょう。")
  JumpToLabel("メニュー")
  DefineLabel("325")
  ShowMessageFace("g_marmaid_fc1",0,0,2,14)
  ShowMessage("【ジェシー】(Affection:\\V[3325])")
  ShowMessage("メリル、腕は磨いているかしら……？")
  ShowMessageFace("knight_mermaid_fc1",1,0,2,15)
  ShowMessage("【メリル】(Affection:\\V[3324])")
  ShowMessage("はい、女王陛下の親衛隊に入るのが目標ですから！")
  ShowMessageFace("g_marmaid_fc1",0,0,2,16)
  ShowMessage("【ジェシー】(Affection:\\V[3325])")
  ShowMessage("うふふっ、がんばってね……")
  ShowMessage("あなたが親衛隊に入れば、私も楽ができそう。")
  ShowMessageFace("knight_mermaid_fc1",1,0,2,17)
  ShowMessage("【メリル】(Affection:\\V[3324])")
  ShowMessage("そのためにも、ますます技を磨きましょう！")
  JumpToLabel("メニュー")
  DefineLabel("メニュー")
  StartLoop()
   355("unlimited_choices(11, [\"Give presents\",")
   655("\"Add to party\",")
   655("\"View present list\",\"Request\",")
   655("\"Never mind\"])")
   If(1,11,0,0,0)
    355("present_start(324)")
    0()
   EndIf()
   If(1,11,0,1,0)
    PictureClear(5)
    355("move_actor_ex(324)")
    EndEventProcessing()
    0()
   EndIf()
   If(1,11,0,2,0)
    ShowMessageFace("",0,0,2,18)
    ShowMessage("Affection       500:\\ia[1291]")
    ShowMessage("Affection     2000:\\ia[1018]")
    ShowMessage("Affection     4000:\\ia[1292]")
    ShowMessage("Affection     6000:\\ia[1633]")
    0()
   EndIf()
   If(1,11,0,3,0)
    PictureClear(5)
    ShowMessageFace("",0,0,2,19)
    ShowMessage("Ask her for what? (Affection:\\V[3324])")
    ShowChoices(strings("Blowjob(Affection:10)","Never mind"),2)
    IfPlayerPicksChoice(0,null)
     If(1,3324,0,10,1)
      355("call_novel_scene(5436)")
      EndEventProcessing()
      0()
     Else()
      ShowMessageFace("knight_mermaid_fc1",2,0,2,20)
      ShowMessage("【メリル】(Affection:\\V[3324])")
      ShowMessage("そ、それはまだだ……")
      0()
     EndIf()
     0()
    IfPlayerPicksChoice(1,null)
     0()
    404()
    0()
   EndIf()
   If(1,11,0,4,1)
    PictureClear(5)
    EndEventProcessing()
    0()
   EndIf()
   0()
  EndLoop()
  0()
 PAGE   2
  // condition: party contains actor #324
  0()



EVENT   15
 PAGE   1
  RunCommonEvent(120)
  0()



EVENT   16
 PAGE   1
  // condition: switch 1328 is ON
  PictureDisplay(5,"80_queenmermaid_st01",0,0,0,0,100,100,0,0)
  PictureMove(5,null,0,0,0,0,100,100,255,0,30,true)
  If(1,1071,0,3,1)
   If(1,1016,0,3,1)
    If(0,2251,1)
     RunCommonEvent(363)
     PictureClear(5)
     EndEventProcessing()
     0()
    EndIf()
    0()
   EndIf()
   0()
  EndIf()
  If(1,3328,0,500,1)
   If(1,4328,0,0,0)
    ChangeVariable(4328,4328,0,0,1)
    ShowMessageFace("queenmermaid_fc1",0,0,2,1)
    ShowMessage("【ローラ】(Affection:\\V[3328])")
    ShowMessage("これを受け取りなさい……")
    250(bytes(0x04,0x08,0x6f,0x3a,0x0c,0x52,0x50,0x47,0x3a,0x3a,0x53,0x45,0x08,0x3a,0x0a,0x40,0x6e,0x61,0x6d,0x65,0x49,0x22,0x0a,0x49,0x74,0x65,0x6d,0x31,0x06,0x3a,0x06,0x45,0x54,0x3a,0x0b,0x40,0x70,0x69,0x74,0x63,0x68,0x69,0x69,0x3a,0x0c,0x40,0x76,0x6f,0x6c,0x75,0x6d,0x65,0x69,0x55))
    ChangeInventoryArmor(1327,0,0,1,false)
    0()
   EndIf()
   0()
  EndIf()
  If(1,3328,0,2000,1)
   If(1,4328,0,1,0)
    ChangeVariable(4328,4328,0,0,2)
    ShowMessageFace("queenmermaid_fc1",0,0,2,2)
    ShowMessage("【ローラ】(Affection:\\V[3328])")
    ShowMessage("これを受け取りなさい……")
    250(bytes(0x04,0x08,0x6f,0x3a,0x0c,0x52,0x50,0x47,0x3a,0x3a,0x53,0x45,0x08,0x3a,0x0a,0x40,0x6e,0x61,0x6d,0x65,0x49,0x22,0x0a,0x49,0x74,0x65,0x6d,0x31,0x06,0x3a,0x06,0x45,0x54,0x3a,0x0b,0x40,0x70,0x69,0x74,0x63,0x68,0x69,0x69,0x3a,0x0c,0x40,0x76,0x6f,0x6c,0x75,0x6d,0x65,0x69,0x55))
    ChangeInventoryArmor(1525,0,0,1,false)
    0()
   EndIf()
   0()
  EndIf()
  If(1,3328,0,4000,1)
   If(1,4328,0,2,0)
    ChangeVariable(4328,4328,0,0,3)
    ShowMessageFace("queenmermaid_fc1",0,0,2,3)
    ShowMessage("【ローラ】(Affection:\\V[3328])")
    ShowMessage("これを受け取りなさい……")
    250(bytes(0x04,0x08,0x6f,0x3a,0x0c,0x52,0x50,0x47,0x3a,0x3a,0x53,0x45,0x08,0x3a,0x0a,0x40,0x6e,0x61,0x6d,0x65,0x49,0x22,0x0a,0x49,0x74,0x65,0x6d,0x31,0x06,0x3a,0x06,0x45,0x54,0x3a,0x0b,0x40,0x70,0x69,0x74,0x63,0x68,0x69,0x69,0x3a,0x0c,0x40,0x76,0x6f,0x6c,0x75,0x6d,0x65,0x69,0x55))
    ChangeInventoryArmor(1714,0,0,1,false)
    0()
   EndIf()
   0()
  EndIf()
  If(1,3328,0,6000,1)
   If(1,4328,0,3,0)
    ChangeVariable(4328,4328,0,0,4)
    ShowMessageFace("queenmermaid_fc1",0,0,2,4)
    ShowMessage("【ローラ】(Affection:\\V[3328])")
    ShowMessage("これを受け取りなさい……")
    250(bytes(0x04,0x08,0x6f,0x3a,0x0c,0x52,0x50,0x47,0x3a,0x3a,0x53,0x45,0x08,0x3a,0x0a,0x40,0x6e,0x61,0x6d,0x65,0x49,0x22,0x0a,0x49,0x74,0x65,0x6d,0x31,0x06,0x3a,0x06,0x45,0x54,0x3a,0x0b,0x40,0x70,0x69,0x74,0x63,0x68,0x69,0x69,0x3a,0x0c,0x40,0x76,0x6f,0x6c,0x75,0x6d,0x65,0x69,0x55))
    ChangeInventoryArmor(1269,0,0,1,false)
    0()
   EndIf()
   0()
  EndIf()
  355("actor_label_jump")
  ShowMessageFace("queenmermaid_fc1",0,0,2,5)
  ShowMessage("【ローラ】(Affection:\\V[3328])")
  ShowMessage("もう少し、静かな場所の方が好みね……")
  ShowMessage("水のせせらぎが、何よりの心の癒やしよ。")
  JumpToLabel("メニュー")
  DefineLabel("195")
  ShowMessageFace("mermaid_fc1",3,0,2,6)
  ShowMessage("【メーヌ】(Affection:\\V[3195])")
  ShowMessage("女王様！　共に戦える事、嬉しく思います。")
  ShowMessageFace("queenmermaid_fc1",0,0,2,7)
  ShowMessage("【ローラ】(Affection:\\V[3328])")
  ShowMessage("人魚の同胞達のためにも……力を貸してもらうわ。")
  ShowMessageFace("mermaid_fc1",3,0,2,8)
  ShowMessage("【メーヌ】(Affection:\\V[3195])")
  ShowMessage("はい！　人魚の歌で、みな誘惑してやりましょう！")
  ShowMessageFace("queenmermaid_fc1",0,0,2,9)
  ShowMessage("【ローラ】(Affection:\\V[3328])")
  ShowMessage("味方も誘惑しないように、気を付けなさいね……")
  JumpToLabel("メニュー")
  DefineLabel("325")
  ShowMessageFace("g_marmaid_fc1",0,0,2,10)
  ShowMessage("【ジェシー】(Affection:\\V[3325])")
  ShowMessage("陛下の身、私がお守りしましょう！")
  ShowMessageFace("queenmermaid_fc1",0,0,2,11)
  ShowMessage("【ローラ】(Affection:\\V[3328])")
  ShowMessage("こんな所でまで、私を守る必要はないわ……")
  ShowMessage("今の私達は、世界のために戦っているのよ。")
  ShowMessageFace("g_marmaid_fc1",0,0,2,12)
  ShowMessage("【ジェシー】(Affection:\\V[3325])")
  ShowMessage("ならば、世界のために戦いながら陛下をお守りしましょう！")
  ShowMessageFace("queenmermaid_fc1",0,0,2,13)
  ShowMessage("【ローラ】(Affection:\\V[3328])")
  ShowMessage("まったく、融通が利かないわね……")
  JumpToLabel("メニュー")
  DefineLabel("326")
  ShowMessageFace("queenmermaid_fc1",0,0,2,14)
  ShowMessage("【ローラ】(Affection:\\V[3328])")
  ShowMessage("ハイネ……あなたは、人間を憎んだ事はないの？")
  ShowMessageFace("loreley_fc1",0,0,2,15)
  ShowMessage("【ハイネ】(Affection:\\V[3326])")
  ShowMessage("あまり、関わりませんから……")
  ShowMessageFace("queenmermaid_fc1",0,0,2,16)
  ShowMessage("【ローラ】(Affection:\\V[3328])")
  ShowMessage("でも、これからの時代はそうはいかないわ……")
  ShowMessage("同胞と力を合わせ、共に歩んでいきましょう。")
  ShowMessageFace("loreley_fc1",0,0,2,17)
  ShowMessage("【ハイネ】(Affection:\\V[3326])")
  ShowMessage("ご一緒します、女王陛下……")
  JumpToLabel("メニュー")
  DefineLabel("327")
  ShowMessageFace("ningyohime_fc1",4,0,2,18)
  ShowMessage("【エル】(Affection:\\V[3327])")
  ShowMessage("おかあさ～ん♪")
  ShowMessageFace("queenmermaid_fc1",0,0,2,19)
  ShowMessage("【ローラ】(Affection:\\V[3328])")
  ShowMessage("エル……新しい友達はできたかしら？")
  ShowMessageFace("ningyohime_fc1",5,0,2,20)
  ShowMessage("【エル】(Affection:\\V[3327])")
  ShowMessage("うん♪　サワガニ娘のサワちゃんに、ズワイガニ娘のカヌちゃん……")
  ShowMessage("それにタカアシガニ娘のナミちゃんとイナちゃんも♪")
  ShowMessageFace("queenmermaid_fc1",0,0,2,21)
  ShowMessage("【ローラ】(Affection:\\V[3328])")
  ShowMessage("……カニばかりね……")
  JumpToLabel("メニュー")
  DefineLabel("329")
  ShowMessageFace("kraken_fc1",0,0,2,22)
  ShowMessage("【クラーケン】(Affection:\\V[3329])")
  ShowMessage("クィーンマーメイド……")
  ShowMessage("あなたには、助けて頂いた恩があります。")
  ShowMessageFace("queenmermaid_fc1",0,0,2,23)
  ShowMessage("【ローラ】(Affection:\\V[3328])")
  ShowMessage("気にしないでいいわ……")
  ShowMessageFace("kraken_fc1",0,0,2,24)
  ShowMessage("【クラーケン】(Affection:\\V[3329])")
  ShowMessage("いえいえ、なんらかの形で報いましょう……")
  ShowMessage("ところで、スルメは好きですか？")
  ShowMessageFace("queenmermaid_fc1",0,0,2,25)
  ShowMessage("【ローラ】(Affection:\\V[3328])")
  ShowMessage("食べませんよ……")
  JumpToLabel("メニュー")
  DefineLabel("メニュー")
  StartLoop()
   355("unlimited_choices(11, [\"Give presents\",")
   655("\"Add to party\",")
   655("\"View present list\",\"Request\",")
   655("\"Never mind\"])")
   If(1,11,0,0,0)
    355("present_start(328)")
    0()
   EndIf()
   If(1,11,0,1,0)
    PictureClear(5)
    355("move_actor_ex(328)")
    EndEventProcessing()
    0()
   EndIf()
   If(1,11,0,2,0)
    ShowMessageFace("",0,0,2,26)
    ShowMessage("Affection       500:\\ia[1327]")
    ShowMessage("Affection     2000:\\ia[1525]")
    ShowMessage("Affection     4000:\\ia[1714]")
    ShowMessage("Affection     6000:\\ia[1269]")
    0()
   EndIf()
   If(1,11,0,3,0)
    PictureClear(5)
    ShowMessageFace("",0,0,2,27)
    ShowMessage("Ask her for what? (Affection:\\V[3328])")
    ShowChoices(strings("Mating Lesson(Affection:10)","Reverse Rape(Affection:100)","Never mind"),3)
    IfPlayerPicksChoice(0,null)
     If(1,3328,0,10,1)
      355("call_novel_scene(5456)")
      EndEventProcessing()
      0()
     Else()
      ShowMessageFace("queenmermaid_fc1",0,0,2,28)
      ShowMessage("【ローラ】(Affection:\\V[3328])")
      ShowMessage("そんな気はないわ……")
      0()
     EndIf()
     0()
    IfPlayerPicksChoice(1,null)
     If(1,3328,0,100,1)
      355("call_novel_scene(5457)")
      EndEventProcessing()
      0()
     Else()
      ShowMessageFace("queenmermaid_fc1",0,0,2,29)
      ShowMessage("【ローラ】(Affection:\\V[3328])")
      ShowMessage("そんな気はないわ……")
      0()
     EndIf()
     0()
    IfPlayerPicksChoice(2,null)
     0()
    404()
    0()
   EndIf()
   If(1,11,0,4,1)
    PictureClear(5)
    EndEventProcessing()
    0()
   EndIf()
   0()
  EndLoop()
  0()
 PAGE   2
  // condition: party contains actor #328
  0()


