// EVENT 0039
Name "Skill: Common Play"

If(1,100,0,10,2)
 RunCommonEvent(40)
 EndEventProcessing()
 0()
EndIf()
If(1,100,0,20,2)
 RunCommonEvent(41)
 EndEventProcessing()
 0()
EndIf()
If(1,100,0,30,2)
 RunCommonEvent(42)
 EndEventProcessing()
 0()
EndIf()
If(1,100,0,40,2)
 RunCommonEvent(43)
 EndEventProcessing()
 0()
EndIf()
If(1,100,0,50,2)
 RunCommonEvent(44)
 EndEventProcessing()
 0()
EndIf()
If(1,100,0,60,2)
 RunCommonEvent(45)
 EndEventProcessing()
 0()
EndIf()
If(1,100,0,70,2)
 RunCommonEvent(46)
 EndEventProcessing()
 0()
EndIf()
If(1,100,0,80,2)
 RunCommonEvent(47)
 EndEventProcessing()
 0()
EndIf()
If(1,100,0,90,2)
 RunCommonEvent(48)
 EndEventProcessing()
 0()
EndIf()
If(1,100,0,100,2)
 RunCommonEvent(49)
 EndEventProcessing()
 0()
EndIf()
If(1,100,0,110,2)
 RunCommonEvent(50)
 EndEventProcessing()
 0()
EndIf()
If(1,100,0,120,2)
 RunCommonEvent(51)
 EndEventProcessing()
 0()
EndIf()
If(1,100,0,130,2)
 RunCommonEvent(52)
 EndEventProcessing()
 0()
EndIf()
If(1,100,0,140,2)
 RunCommonEvent(53)
 EndEventProcessing()
 0()
EndIf()
If(1,100,0,150,2)
 RunCommonEvent(54)
 EndEventProcessing()
 0()
EndIf()
If(1,100,0,160,2)
 RunCommonEvent(55)
 EndEventProcessing()
 0()
EndIf()
If(1,100,0,170,2)
 RunCommonEvent(56)
 EndEventProcessing()
 0()
EndIf()
If(1,100,0,180,2)
 RunCommonEvent(57)
 EndEventProcessing()
 0()
EndIf()
If(1,100,0,190,2)
 RunCommonEvent(58)
 EndEventProcessing()
 0()
EndIf()
If(1,100,0,200,2)
 RunCommonEvent(59)
 EndEventProcessing()
 0()
EndIf()
If(1,100,0,210,2)
 RunCommonEvent(60)
 EndEventProcessing()
 0()
EndIf()
If(1,100,0,220,2)
 RunCommonEvent(61)
 EndEventProcessing()
 0()
EndIf()
If(1,100,0,230,2)
 RunCommonEvent(62)
 EndEventProcessing()
 0()
EndIf()
If(1,100,0,240,2)
 RunCommonEvent(63)
 EndEventProcessing()
 0()
EndIf()
If(1,100,0,250,2)
 RunCommonEvent(64)
 EndEventProcessing()
 0()
EndIf()
If(1,100,0,260,2)
 RunCommonEvent(65)
 EndEventProcessing()
 0()
EndIf()
If(1,100,0,270,2)
 RunCommonEvent(66)
 EndEventProcessing()
 0()
EndIf()
If(1,100,0,280,2)
 RunCommonEvent(67)
 EndEventProcessing()
 0()
EndIf()
If(1,100,0,290,2)
 RunCommonEvent(68)
 EndEventProcessing()
 0()
EndIf()
If(1,100,0,300,2)
 RunCommonEvent(69)
 EndEventProcessing()
 0()
EndIf()
If(1,100,0,310,2)
 RunCommonEvent(70)
 EndEventProcessing()
 0()
EndIf()
If(1,100,0,320,2)
 RunCommonEvent(71)
 EndEventProcessing()
 0()
EndIf()
If(1,100,0,330,2)
 RunCommonEvent(72)
 EndEventProcessing()
 0()
EndIf()
If(1,100,0,340,2)
 RunCommonEvent(73)
 EndEventProcessing()
 0()
EndIf()
If(1,100,0,350,2)
 RunCommonEvent(74)
 EndEventProcessing()
 0()
EndIf()
If(1,100,0,360,2)
 RunCommonEvent(75)
 EndEventProcessing()
 0()
EndIf()
If(1,100,0,370,2)
 RunCommonEvent(76)
 EndEventProcessing()
 0()
EndIf()
If(1,100,0,380,2)
 RunCommonEvent(77)
 EndEventProcessing()
 0()
EndIf()
If(1,100,0,390,2)
 RunCommonEvent(78)
 EndEventProcessing()
 0()
EndIf()
If(1,100,0,400,2)
 RunCommonEvent(79)
 EndEventProcessing()
 0()
EndIf()
If(1,100,0,410,2)
 RunCommonEvent(80)
 EndEventProcessing()
 0()
EndIf()
If(1,100,0,420,2)
 RunCommonEvent(81)
 EndEventProcessing()
 0()
EndIf()
If(1,100,0,430,2)
 RunCommonEvent(82)
 EndEventProcessing()
 0()
EndIf()
If(1,100,0,440,2)
 RunCommonEvent(83)
 EndEventProcessing()
 0()
EndIf()
If(1,100,0,450,2)
 RunCommonEvent(84)
 EndEventProcessing()
 0()
EndIf()
If(1,100,0,460,2)
 RunCommonEvent(85)
 EndEventProcessing()
 0()
EndIf()
If(1,100,0,470,2)
 RunCommonEvent(86)
 EndEventProcessing()
 0()
EndIf()
If(1,100,0,480,2)
 RunCommonEvent(87)
 EndEventProcessing()
 0()
EndIf()
If(1,100,0,490,2)
 RunCommonEvent(88)
 EndEventProcessing()
 0()
EndIf()
If(1,100,0,500,2)
 RunCommonEvent(89)
 EndEventProcessing()
 0()
EndIf()
If(1,100,0,510,2)
 RunCommonEvent(90)
 EndEventProcessing()
 0()
EndIf()
If(1,100,0,520,2)
 RunCommonEvent(91)
 EndEventProcessing()
 0()
EndIf()
If(1,100,0,530,2)
 RunCommonEvent(92)
 EndEventProcessing()
 0()
EndIf()
If(1,100,0,540,2)
 RunCommonEvent(93)
 EndEventProcessing()
 0()
EndIf()
If(1,100,0,550,2)
 RunCommonEvent(94)
 EndEventProcessing()
 0()
EndIf()
If(1,100,0,560,2)
 RunCommonEvent(95)
 EndEventProcessing()
 0()
EndIf()
If(1,100,0,570,2)
 RunCommonEvent(96)
 EndEventProcessing()
 0()
EndIf()
If(1,100,0,580,2)
 RunCommonEvent(97)
 EndEventProcessing()
 0()
EndIf()
0()
